<?xml version="1.0" encoding="UTF-8" standalone="no"?>
<!-- Created with Inkscape (http://www.inkscape.org/) -->

<svg
   xmlns:dc="http://purl.org/dc/elements/1.1/"
   xmlns:cc="http://creativecommons.org/ns#"
   xmlns:rdf="http://www.w3.org/1999/02/22-rdf-syntax-ns#"
   xmlns:svg="http://www.w3.org/2000/svg"
   xmlns="http://www.w3.org/2000/svg"
   xmlns:sodipodi="http://sodipodi.sourceforge.net/DTD/sodipodi-0.dtd"
   xmlns:inkscape="http://www.inkscape.org/namespaces/inkscape"
   width="800mm"
   height="800mm"
   viewBox="0 0 800 800"
   version="1.1"
   id="svg8"
   inkscape:version="0.92.5 (2060ec1f9f, 2020-04-08)"
   sodipodi:docname="graduations.svg">
  <defs
     id="defs2">
    <inkscape:path-effect
       effect="powerstroke"
       id="path-effect817"
       is_visible="true"
       offset_points="1,0.13229166"
       sort_points="true"
       interpolator_type="CubicBezierJohan"
       interpolator_beta="0.2"
       start_linecap_type="zerowidth"
       linejoin_type="extrp_arc"
       miter_limit="4"
       end_linecap_type="zerowidth" />
  </defs>
  <sodipodi:namedview
     id="base"
     pagecolor="#ffffff"
     bordercolor="#666666"
     borderopacity="1.0"
     inkscape:pageopacity="0.0"
     inkscape:pageshadow="2"
     inkscape:zoom="0.14095659"
     inkscape:cx="809.19825"
     inkscape:cy="1590.7825"
     inkscape:document-units="mm"
     inkscape:current-layer="layer1"
     showgrid="false"
     inkscape:window-width="1398"
     inkscape:window-height="851"
     inkscape:window-x="42"
     inkscape:window-y="25"
     inkscape:window-maximized="1" />
  <metadata
     id="metadata5">
    <rdf:RDF>
      <cc:Work
         rdf:about="">
        <dc:format>image/svg+xml</dc:format>
        <dc:type
           rdf:resource="http://purl.org/dc/dcmitype/StillImage" />
        <dc:title></dc:title>
      </cc:Work>
    </rdf:RDF>
  </metadata>
  <g
     inkscape:label="Calque 1"
     inkscape:groupmode="layer"
     id="layer1"
     transform="translate(0,503)">
    <rect
       style="opacity:0.98000004;vector-effect:none;fill:#000000;fill-opacity:1;stroke:none;stroke-width:4.78288412;stroke-linecap:butt;stroke-linejoin:miter;stroke-miterlimit:4;stroke-dasharray:none;stroke-dashoffset:0;stroke-opacity:1"
       id="rect819"
       width="800.349"
       height="82.906288"
       x="4.9943111e-07"
       y="-20.469688" />
    <rect
       style="opacity:0.98000004;vector-effect:none;fill:#000000;fill-opacity:1;stroke:none;stroke-width:2.20658708;stroke-linecap:butt;stroke-linejoin:miter;stroke-miterlimit:4;stroke-dasharray:none;stroke-dashoffset:0;stroke-opacity:1"
       id="rect819-3-6"
       width="239.31227"
       height="59.015274"
       x="-14.937734"
       y="659.66522"
       transform="rotate(-90)" />
    <rect
       style="opacity:0.98000004;vector-effect:none;fill:#000000;fill-opacity:1;stroke:none;stroke-width:2.20658708;stroke-linecap:butt;stroke-linejoin:miter;stroke-miterlimit:4;stroke-dasharray:none;stroke-dashoffset:0;stroke-opacity:1"
       id="rect819-3-6-7"
       width="239.31227"
       height="59.015274"
       x="-14.937734"
       y="70.417038"
       transform="rotate(-90)" />
    <rect
       style="opacity:0.98000004;vector-effect:none;fill:#000000;fill-opacity:1;stroke:none;stroke-width:1.84682775;stroke-linecap:butt;stroke-linejoin:miter;stroke-miterlimit:4;stroke-dasharray:none;stroke-dashoffset:0;stroke-opacity:1"
       id="rect819-3-6-7-3"
       width="167.63922"
       height="59.015274"
       x="-1.2179198"
       y="188.26666"
       transform="rotate(-90)" />
    <rect
       style="opacity:0.98000004;vector-effect:none;fill:#000000;fill-opacity:1;stroke:none;stroke-width:1.84682775;stroke-linecap:butt;stroke-linejoin:miter;stroke-miterlimit:4;stroke-dasharray:none;stroke-dashoffset:0;stroke-opacity:1"
       id="rect819-3-6-7-3-6"
       width="167.63922"
       height="59.015274"
       x="-2.5451946"
       y="306.11633"
       transform="rotate(-90)" />
    <rect
       style="opacity:0.98000004;vector-effect:none;fill:#000000;fill-opacity:1;stroke:none;stroke-width:1.84682775;stroke-linecap:butt;stroke-linejoin:miter;stroke-miterlimit:4;stroke-dasharray:none;stroke-dashoffset:0;stroke-opacity:1"
       id="rect819-3-6-7-3-7"
       width="167.63922"
       height="59.015274"
       x="-2.5451932"
       y="423.96594"
       transform="rotate(-90)" />
    <rect
       style="opacity:0.98000004;vector-effect:none;fill:#000000;fill-opacity:1;stroke:none;stroke-width:1.84682775;stroke-linecap:butt;stroke-linejoin:miter;stroke-miterlimit:4;stroke-dasharray:none;stroke-dashoffset:0;stroke-opacity:1"
       id="rect819-3-6-7-3-5"
       width="167.63922"
       height="59.015274"
       x="0.10934838"
       y="541.81555"
       transform="rotate(-90)" />
  </g>
</svg>
