<?xml version="1.0" encoding="UTF-8" standalone="no"?>
<svg
   xmlns:dc="http://purl.org/dc/elements/1.1/"
   xmlns:cc="http://creativecommons.org/ns#"
   xmlns:rdf="http://www.w3.org/1999/02/22-rdf-syntax-ns#"
   xmlns:svg="http://www.w3.org/2000/svg"
   xmlns="http://www.w3.org/2000/svg"
   xmlns:sodipodi="http://sodipodi.sourceforge.net/DTD/sodipodi-0.dtd"
   xmlns:inkscape="http://www.inkscape.org/namespaces/inkscape"
   width="35.051231"
   height="283.98355"
   viewBox="0 0 15.021956 121.70724"
   version="1.1"
   id="modele_ordi"
   sodipodi:docname="ordi.svg"
   inkscape:version="0.92.5 (2060ec1f9f, 2020-04-08)">
  <sodipodi:namedview
     pagecolor="#ffffff"
     bordercolor="#666666"
     borderopacity="1"
     objecttolerance="10"
     gridtolerance="10"
     guidetolerance="10"
     inkscape:pageopacity="0"
     inkscape:pageshadow="2"
     inkscape:window-width="1638"
     inkscape:window-height="1001"
     id="namedview14"
     showgrid="false"
     inkscape:zoom="2.3505192"
     inkscape:cx="-48.875072"
     inkscape:cy="105.89132"
     inkscape:window-x="42"
     inkscape:window-y="25"
     inkscape:window-maximized="1"
     inkscape:current-layer="modele_ordi" />
  <defs
     id="defs2" />
  <metadata
     id="metadata5">
    <rdf:RDF>
      <cc:Work
         rdf:about="">
        <dc:format>image/svg+xml</dc:format>
        <dc:type
           rdf:resource="http://purl.org/dc/dcmitype/StillImage" />
        <dc:title />
      </cc:Work>
    </rdf:RDF>
  </metadata>
  <g
     id="layer1"
     transform="matrix(0.96642461,0,0,0.54947906,-38.610146,37.80721)" />
  <g
     id="layer1-3"
     transform="matrix(1.2467512,0,0,0.70886404,-45.653724,6.4760745)" />
  <g
     id="layer1-3-3"
     transform="matrix(-1.2467512,0,0,0.70886404,59.591341,-11.429716)" />
  <g
     id="layer1-3-7"
     transform="matrix(1.2467512,0,0,0.70886404,-45.051871,-29.353436)" />
  <g
     id="layer1-3-35"
     transform="matrix(-1.2467512,0,0,0.70886404,59.082867,-48.039876)" />
  <g
     id="layer1-3-9"
     transform="matrix(1.2467512,0,0,0.70886404,-47.085769,-66.090736)" />
  <g
     id="layer1-3-2"
     transform="matrix(-1.2467512,0,0,0.70886404,57.811679,-84.141576)" />
  <path
     style="fill:#fffefe;fill-opacity:1;stroke:#000000;stroke-width:0.85714286;stroke-linecap:butt;stroke-linejoin:miter;stroke-opacity:1;stroke-miterlimit:4;stroke-dasharray:none"
     d="M 1.6409748,0.27510048 5.1052552,12.855907 2.1879664,12.491246 5.6522464,21.243112 2.1879664,20.878451 7.4755517,30.90663 3.0996191,30.177308 7.8402129,44.034429 2.9172886,43.122776 6.0169076,52.056973 2.1879664,50.780657 5.834577,59.532523 2.0056359,56.797564 4.9229246,66.278756 2.370297,66.825746 5.4699159,76.671596 3.2819496,78.31257 6.9285605,89.2524 4.3354873,87.582041 7.110891,96.545623 1.8233053,92.16969 l 6.5142911,14.33965 -5.6026384,-1.94117 4.9229243,7.3779 -4.3335895,1.31519 2.8749454,1.88208 -5.105255,5.83457 8.1606328,-4.47357 -1.5490232,-2.08385 3.6725272,0.0435 -3.4993596,-6.20494 4.7020466,-0.0442 L 8.3872046,99.280582 11.785124,100.97116 7.9653445,91.957974 12.365296,93.005821 7.110891,79.406555 10.939832,82.688503 6.7462299,68.46672 10.757502,72.660322 7.8402129,62.814476 10.575171,63.179134 8.204874,53.333284 12.033815,55.521253 8.9341963,46.222397 13.67479,49.504346 7.6578823,34.735572 12.398476,36.194216 10.028179,21.607773 8.3872046,23.066417 10.21051,13.402899 7.4755517,14.496882 13.310129,1.1867532"
     id="pointe"
     inkscape:connector-curvature="0"
     sodipodi:nodetypes="ccccccccccccccccccccccccccccccccccccccccccccccccccccc"
     inkscape:label="#path17" />
</svg>
