<?xml version="1.0" encoding="UTF-8" standalone="no"?>
<!DOCTYPE svg PUBLIC "-//W3C//DTD SVG 1.1//EN" "http://www.w3.org/Graphics/SVG/1.1/DTD/svg11.dtd">
<svg width="100%" height="100%" viewBox="0 0 79 112" version="1.1" xmlns="http://www.w3.org/2000/svg" xmlns:xlink="http://www.w3.org/1999/xlink" xml:space="preserve" xmlns:serif="http://www.serif.com/" style="fill-rule:evenodd;clip-rule:evenodd;">
    <g transform="matrix(1,0,0,1,-374.479,-210.254)">
        <path d="M438.613,245.486C438.613,245.486 438.222,224.745 438.123,220.003C438.12,216.819 436.388,216.833 436.388,216.833C436.388,216.833 434.336,218.656 434.336,223.458C434.336,228.257 434.9,257.545 434.9,257.545L436.099,257.545L438.613,245.486Z" style="fill:rgb(182,156,156);fill-opacity:0.99;fill-rule:nonzero;"/>
    </g>
    <g transform="matrix(1,0,0,1,-374.479,-210.254)">
        <path d="M438.82,245.191C438.82,245.191 438.568,226.103 438.48,221.363C438.48,218.177 437.244,217.026 437.244,217.026C437.244,217.026 435.475,218.849 435.475,223.648C435.475,228.45 436.107,257.542 436.107,257.542L438.82,245.191Z" style="fill:white;fill-opacity:0.99;fill-rule:nonzero;"/>
    </g>
    <g transform="matrix(1,0,0,1,-374.479,-210.254)">
        <path d="M450.043,265.938L448.305,266.037L446.27,266.185L444.268,266.664L443.1,267.474L443.1,267.574L443.092,267.574L443.1,267.585L443.1,278.498L444.489,279.292L447.018,279.689L449.328,279.519L451.191,279.048L452.509,277.929L453.132,277.01L453.036,266.879C452.625,266.737 452.197,266.329 451.783,266.136L450.043,265.938Z" style="fill:rgb(104,157,192);fill-rule:nonzero;"/>
    </g>
    <g transform="matrix(1,0,0,1,-374.479,-210.254)">
        <path d="M437.567,227.472L437.666,232.696L435.095,232.914L433.318,227.778L433.335,227.203L430.812,226.908L427.946,228.268L425.455,231.511L420.528,241.16L410.76,242.563L411.403,247.385L422.872,246.353L426.64,240.857L427.961,237.81L426.098,254.974L425.282,281.387L429.568,281.387C429.568,281.387 429.956,264.402 430.384,263.086C430.812,261.771 432.726,254.976 432.726,254.976L433.757,255.016L434.886,263.526L436.385,281.066L440.456,280.409L440.243,266.814L440.028,249.931L441.723,239.281L442.814,238.969L445.601,242.476L446.862,248.995L446.284,256.433L450.507,256.887L450.507,247.901L449.671,241.381L445.269,229.317L442.202,227.52L437.567,227.472Z" style="fill:rgb(0,90,7);fill-rule:nonzero;"/>
    </g>
    <g transform="matrix(1,0,0,1,-374.479,-210.254)">
        <path d="M437.862,225.496L438.163,227.88L439.387,228.838L440.011,230.196L439.807,231.914L437.409,235.627L434.631,235.134L430.642,229.813L431.691,228.523L433.193,227.582L434.398,224.306L438.163,224.453L437.862,225.496Z" style="fill:rgb(234,170,174);fill-rule:nonzero;"/>
    </g>
    <g transform="matrix(1,0,0,1,-374.479,-210.254)">
        <path d="M437.712,212.981L439.968,215.96L440.572,222.069L438.163,226.837L434.548,227.134L431.989,224.453L431.838,215.813L433.947,213.576L437.712,212.981Z" style="fill:rgb(234,170,174);fill-rule:nonzero;"/>
    </g>
    <g transform="matrix(1,0,0,1,-374.479,-210.254)">
        <path d="M440.118,218.248L440.357,217.698L440.666,217.769L440.872,218.421L440.631,220.507L440.118,218.248Z" style="fill:rgb(209,136,140);fill-opacity:0.99;fill-rule:nonzero;"/>
    </g>
    <g transform="matrix(1,0,0,1,-374.479,-210.254)">
        <path d="M439.384,215.504L440.705,215.844L441.21,216.428L441.896,217.698L440.257,216.479L440.943,217.723L440.943,218.597L439.886,217.063L438.752,216.323L437.193,216.561L439.384,215.504Z" style="fill:rgb(109,61,48);fill-opacity:0.99;fill-rule:nonzero;"/>
    </g>
    <g transform="matrix(1,0,0,1,-374.479,-210.254)">
        <path d="M444.24,213.443L446.349,213.593L443.789,215.232L437.766,216.573C437.766,216.573 430.54,217.913 429.939,217.913L425.271,217.913L429.035,216.275L437.766,213.593L444.24,213.443Z" style="fill:rgb(245,165,61);fill-rule:nonzero;"/>
    </g>
    <g transform="matrix(1,0,0,1,-374.479,-210.254)">
        <path d="M439.14,213.863L431.782,215.467L431.481,212.19L435.246,210.699L438.86,210.254L438.707,212.04L439.14,213.863Z" style="fill:rgb(245,165,61);fill-rule:nonzero;"/>
    </g>
    <g transform="matrix(1,0,0,1,-374.479,-210.254)">
        <path d="M438.009,277.172L436.538,262.879L435.172,254.577L432.544,254.684L433.911,255.209L435.277,269.291L435.909,277.909L438.009,277.172Z" style="fill:rgb(5,79,11);fill-opacity:0.99;fill-rule:nonzero;"/>
    </g>
    <g transform="matrix(1,0,0,1,-374.479,-210.254)">
        <path d="M415.355,287.736L385.574,301.473L382.711,299.642L374.726,303.885L381.651,302.051L382.986,303.08L374.922,307.548L384.231,304.475L375.18,310.541L386.41,306.159L386.694,303.531L413.073,289.828L398.548,300.288L394.191,299.594L391.079,301.161L393.568,303.951L382.779,310.402L379.653,314.325L374.893,313.892L374.686,316.769L374.479,319.646L378.68,322.226L385.061,322.084L388.684,322.092L387.675,318.016L390.481,315.981L392.74,314.762L402.077,307.959L411.599,302.933L415.188,292.632C423.323,292.297 431.535,291.929 438.883,291.991L446.896,288.079L437.559,283.374L437.145,286.512L433.616,289.128L430.855,290.976L428.519,291.43L424.772,291.832L426.042,291.044L431.127,288.082L427.184,284.941L419.715,288.952L416.965,290.503L414.488,291.643L412.036,293.224L416.392,288.952L415.874,288.343L415.355,287.736Z" style="fill:rgb(89,89,89);fill-opacity:0.31;fill-rule:nonzero;"/>
    </g>
    <g transform="matrix(1,0,0,1,-374.479,-210.254)">
        <path d="M440.813,276.001L435.603,275.553L435.934,285.327L438.231,287.226L438.625,286.353L439.537,287.666L444.101,289.559L446.19,289.123L447.494,287.374L446.712,285.917L440.58,282.713L440.813,276.001Z" style="fill:rgb(242,195,44);fill-rule:nonzero;"/>
    </g>
    <g transform="matrix(1,0,0,1,-374.479,-210.254)">
        <path d="M426.974,277.699L427.187,258.151L429.287,239.868L428.026,237.45L424.137,243.017L421.089,245.435L413.314,246.172L412.157,243.23L411.109,243.23C411.109,243.23 411.001,247.643 411.42,247.643C411.843,247.643 421.722,246.906 421.722,246.906L423.717,245.857L427.816,238.394L426.135,251.952L425.713,257.732L425.608,277.489L426.974,277.699Z" style="fill:rgb(5,79,11);fill-opacity:0.99;fill-rule:nonzero;"/>
    </g>
    <g transform="matrix(1,0,0,1,-374.479,-210.254)">
        <path d="M429.732,274.81L425.007,275.054L425.214,283.601L421.149,287.473L420.849,289.709L422.657,291.348L425.217,290.752L426.872,289.261L428.678,287.921L428.678,289.111L430.483,288.071L429.732,274.81Z" style="fill:rgb(242,195,44);fill-rule:nonzero;"/>
    </g>
    <g transform="matrix(1,0,0,1,-374.479,-210.254)">
        <path d="M433.417,217.48L432.879,220.113L433.083,223.061L433.956,225.215L431.949,224.246L431.804,219.498L431.671,217.616L433.417,217.48Z" style="fill:rgb(209,136,140);fill-opacity:0.99;fill-rule:nonzero;"/>
    </g>
    <g transform="matrix(1,0,0,1,-374.479,-210.254)">
        <path d="M431.753,219.685L431.994,219.77L432.281,222.528L434.132,224.824L436.32,225.516L437.995,225.417L439.095,224.697L440.286,222.599L440.118,218.347L440.793,221.216L440.855,223.971L440.566,225.989L439.707,227.134L438.613,228.03L437.525,228.325L435.753,228.325L434.353,227.775L432.893,226.987L432.306,225.797L431.717,224.603L431.666,223.957L431.617,223.311L431.753,219.685Z" style="fill:rgb(109,61,48);fill-rule:nonzero;"/>
    </g>
    <g transform="matrix(1,0,0,1,-374.479,-210.254)">
        <path d="M436.507,222.219L434.098,223.112L432.743,224.603L436.054,223.112L438.163,223.112L440.722,223.858L438.914,222.517L436.507,222.219Z" style="fill:rgb(109,61,48);fill-rule:nonzero;"/>
    </g>
    <g transform="matrix(1,0,0,1,-374.479,-210.254)">
        <path d="M415.882,289.114L408.353,236.222L406.247,236.968L414.524,289.409L415.882,289.114Z" style="fill:rgb(136,75,58);fill-rule:nonzero;"/>
    </g>
    <g transform="matrix(1,0,0,1,-374.479,-210.254)">
        <path d="M415.417,289.196L408.643,249.205L407.134,236.974L406.193,237.163L414.096,287.124L414.757,289.667L415.417,289.196Z" style="fill:rgb(120,48,27);fill-opacity:0.99;fill-rule:nonzero;"/>
    </g>
    <g transform="matrix(1,0,0,1,-374.479,-210.254)">
        <path d="M450.04,256.076L450.136,257.956L451.358,259.18L452.015,261.062L450.981,263.789L449.005,264.45L447.877,264.166L446.652,263.319L447.783,262.003L447.593,260.969L446.936,260.872L446.278,262.191L446.842,263.976L445.243,263.415L445.147,260.969L447.029,258.616L447.97,256.263L450.04,256.076Z" style="fill:rgb(234,170,174);fill-opacity:0.99;fill-rule:nonzero;"/>
    </g>
    <g transform="matrix(1,0,0,1,-374.479,-210.254)">
        <path d="M425.282,275.122L424.942,274.986L424.942,283.595L420.707,287.7L420.236,289.65L422.118,291.266L423.533,291.532L425.548,290.659L428.44,288.034L424.338,290.322L421.985,290.254L421.583,288.371L423.734,286.084L426.223,284.202L426.087,277.206L426.555,275.051L425.282,275.122Z" style="fill:rgb(196,161,50);fill-opacity:0.99;fill-rule:nonzero;"/>
    </g>
    <g transform="matrix(1,0,0,1,-374.479,-210.254)">
        <path d="M423.91,289.043L422.768,288.91L423.777,287.901L423.91,289.043ZM435.773,274.921L436.445,275.46L436.983,275.794L436.915,284.672L437.859,285.344L439.203,285.951L443.911,288.371L445.793,288.439L446.871,287.765L446.737,286.353L445.527,285.344L447.007,285.951L447.88,287.566L447.409,288.842L445.861,289.582L444.18,289.65L439.271,287.631L438.8,286.489L438.262,287.161L435.569,285.279L435.37,275.593L435.773,274.921Z" style="fill:rgb(196,161,50);fill-opacity:0.99;fill-rule:nonzero;"/>
    </g>
    <g transform="matrix(1,0,0,1,-374.479,-210.254)">
        <path d="M445.861,263.554L446.063,261.065L447.542,259.719L448.35,257.905L448.549,257.111L447.613,257.097L446.831,258.894L444.96,260.844L445.065,262.814L445.391,263.755L445.861,263.554Z" style="fill:rgb(209,136,140);fill-opacity:0.99;fill-rule:nonzero;"/>
    </g>
    <g transform="matrix(1,0,0,1,-374.479,-210.254)">
        <path d="M450.482,266.38L448.277,266.434L445.025,266.766L443.648,267.426L443.923,268.033L445.632,268.254L449.325,268.14L451.528,267.647L452.409,267.205L451.585,266.545L450.482,266.38Z" style="fill:rgb(66,115,148);fill-opacity:0.99;fill-rule:nonzero;"/>
    </g>
    <g transform="matrix(1,0,0,1,-374.479,-210.254)">
        <path d="M443.662,267.806L443.747,265.249L444.362,263.823L445.555,263.024L447.562,262.687" style="fill:none;fill-rule:nonzero;stroke:rgb(75,71,71);stroke-opacity:0.99;stroke-width:0.4px;"/>
    </g>
    <g transform="matrix(1,0,0,1,-374.479,-210.254)">
        <path d="M446.803,263.015L447.803,261.93L447.61,260.796L448.149,261.198L448.62,262.746L447.208,263.889L446.803,263.015ZM433.205,227.129L433.219,227.503L431.334,228.107L430.597,229.856L432.343,232.682L433.151,234.967L435.974,235.911L437.363,235.57L434.965,234.967L434.024,233.286L433.023,230.933L433.485,228.713L435.325,228.175L434.307,227.738L433.205,227.129Z" style="fill:rgb(209,136,140);fill-opacity:0.99;fill-rule:nonzero;"/>
    </g>
    <g transform="matrix(1,0,0,1,-374.479,-210.254)">
        <path d="M436.243,219.027L436.249,220.252L435.784,220.343L435.098,220.64L435.098,219.025L435.166,218.557L435.603,218.259L436.042,218.288L436.243,219.027ZM437.803,218.67L437.817,220.011L438.367,220.022L439.081,220.178L438.973,218.591L438.667,218.251L438.327,218.109L437.924,218.169L437.803,218.67Z" style="fill:rgb(232,232,232);fill-opacity:0.99;fill-rule:nonzero;"/>
    </g>
    <g transform="matrix(1,0,0,1,-374.479,-210.254)">
        <path d="M437.321,218.826L437.454,220.575L438.531,221.754L438.318,222.256L437.253,222.324L438.392,222.545L438.724,222.279L438.866,221.956L438.568,221.295L437.658,220.17L437.448,218.957L437.321,218.826Z" style="fill:rgb(209,136,140);fill-opacity:0.99;fill-rule:nonzero;"/>
    </g>
    <g transform="matrix(1,0,0,1,-374.479,-210.254)">
        <path d="M434.877,210.917L432.618,211.535L431.246,212.321L431.657,215.473L434.123,214.447L435.356,214.104L434.911,212.596L434.877,210.917Z" style="fill:rgb(208,139,48);fill-opacity:0.99;fill-rule:nonzero;"/>
    </g>
    <g transform="matrix(1,0,0,1,-374.479,-210.254)">
        <ellipse cx="435.637" cy="219.526" rx="0.405" ry="0.635" style="fill:rgb(48,147,208);fill-opacity:0.99;"/>
    </g>
    <g transform="matrix(1,0,0,1,-374.479,-210.254)">
        <ellipse cx="438.415" cy="219.311" rx="0.394" ry="0.607" style="fill:rgb(48,147,208);fill-opacity:0.99;"/>
    </g>
    <g transform="matrix(1,0,0,1,-374.479,-210.254)">
        <path d="M436.419,217.769L435.39,217.803L434.673,218.35L434.157,219.036L434.639,217.837L435.665,217.253L436.487,217.392L436.419,217.769ZM437.686,217.46L437.72,217.698L438.267,217.562L438.712,217.287L439.432,217.426L439.741,217.766L438.953,216.876L438.131,216.913L437.584,217.151L437.686,217.46Z" style="fill:rgb(109,61,48);fill-opacity:0.99;fill-rule:nonzero;"/>
    </g>
    <g transform="matrix(1,0,0,1,-374.479,-210.254)">
        <path d="M438.406,223.418L437.207,223.744L435.699,223.614L436.606,224.121L437.185,224.345L438.148,224.118L438.406,223.418Z" style="fill:rgb(246,246,246);fill-opacity:0.99;fill-rule:nonzero;"/>
    </g>
    <g transform="matrix(1,0,0,1,-374.479,-210.254)">
        <path d="M431.813,219.694L431.45,218.863L430.903,218.727L430.631,219.413L431.067,221.604L431.748,221.726L431.804,220.473L431.813,219.694Z" style="fill:rgb(209,136,140);fill-opacity:0.99;fill-rule:nonzero;"/>
    </g>
    <g transform="matrix(1,0,0,1,-374.479,-210.254)">
        <path d="M434.31,217.276L433.568,218.174L433.015,219.308L432.802,220.686L432.485,218.597L432.275,219.838L432.275,221.043L431.603,219.37L431.243,218.254L431.215,217.565L434.758,216.85L434.31,217.276Z" style="fill:rgb(109,61,48);fill-opacity:0.99;fill-rule:nonzero;"/>
    </g>
    <g transform="matrix(1,0,0,1,-374.479,-210.254)">
        <path d="M443.758,215.198L436.521,216.19C436.521,216.19 432.445,216.808 432.343,216.808C432.241,216.808 431.28,216.672 431.28,216.672L431.008,216.159L433.012,214.929C433.012,214.929 430.047,215.952 429.055,216.227L424.843,218.075L427.241,218.18L431.076,217.939L434.466,217.287L438.712,216.363L443.758,215.198Z" style="fill:rgb(208,139,48);fill-opacity:0.99;fill-rule:nonzero;"/>
    </g>
    <g transform="matrix(1,0,0,1,-374.479,-210.254)">
        <path d="M452.407,267.001L452.421,264.54L452.021,263.574L451.142,262.99" style="fill:none;fill-rule:nonzero;stroke:rgb(75,71,71);stroke-opacity:0.99;stroke-width:0.4px;"/>
    </g>
    <g transform="matrix(1,0,0,1,-374.479,-210.254)">
        <path d="M443.047,267.962L443.818,268.444L444.974,268.637L444.878,279.425L443.962,279.017L443.047,278.413L443.047,267.962Z" style="fill:rgb(72,113,141);fill-opacity:0.99;fill-rule:nonzero;"/>
    </g>
    <g transform="matrix(1,0,0,1,-374.479,-210.254)">
        <ellipse cx="438.432" cy="219.362" rx="0.235" ry="0.369" style="fill-opacity:0.99;"/>
    </g>
    <g transform="matrix(1,0,0,1,-374.479,-210.254)">
        <ellipse cx="435.711" cy="219.628" rx="0.235" ry="0.369" style="fill-opacity:0.99;"/>
    </g>
</svg>
