<?xml version="1.0" encoding="UTF-8" standalone="no"?>
<!-- Created with Inkscape (http://www.inkscape.org/) -->

<svg
   version="1.1"
   id="svg2"
   width="47.652805"
   height="48"
   viewBox="0 0 47.652805 48"
   sodipodi:docname="Logo.svg"
   inkscape:version="1.2.2 (1:1.2.2+202305151914+b0a8486541)"
   xmlns:inkscape="http://www.inkscape.org/namespaces/inkscape"
   xmlns:sodipodi="http://sodipodi.sourceforge.net/DTD/sodipodi-0.dtd"
   xmlns="http://www.w3.org/2000/svg"
   xmlns:svg="http://www.w3.org/2000/svg">
  <defs
     id="defs6" />
  <sodipodi:namedview
     id="namedview4"
     pagecolor="#ffffff"
     bordercolor="#666666"
     borderopacity="1.0"
     inkscape:showpageshadow="2"
     inkscape:pageopacity="0.0"
     inkscape:pagecheckerboard="0"
     inkscape:deskcolor="#d1d1d1"
     showgrid="false"
     inkscape:zoom="1.5424955"
     inkscape:cx="233.38804"
     inkscape:cy="119.93552"
     inkscape:window-width="1884"
     inkscape:window-height="1025"
     inkscape:window-x="36"
     inkscape:window-y="0"
     inkscape:window-maximized="1"
     inkscape:current-layer="g8" />
  <g
     inkscape:groupmode="layer"
     inkscape:label="Image"
     id="g8"
     transform="translate(-4.8976603,2.6694794)">
    <g
       id="g239"
       transform="matrix(0.08679928,0,0,0.08679928,4.8976603,-2.6694794)">
      <path
         style="fill:#fcfcfc"
         d="M 1,276.5 V 1 H 274.5 548 V 276.5 552 H 274.5 1 Z m 306.5,261.87352 c 60.71792,-8.30059 113.50059,-34.69052 155,-77.49589 28.33028,-29.22181 47.68973,-60.43929 60.57731,-97.68208 C 534.52221,330.12186 539.68182,291.88365 537.06929,259.5 531.71809,193.16924 505.2558,135.17389 459.85334,90.271783 411.94102,42.887491 350.98769,16.389423 283,13.388835 260.39863,12.39134 232.29139,15.619727 207.40183,22.072014 120.78053,44.527431 50.849465,110.56438 23.217524,196 5.343156,251.26603 6.1412335,309.5096 25.533221,364.99916 46.923487,426.20674 92.000141,478.37951 151,510.21734 c 29.62715,15.98757 68.6487,27.13783 105.5,30.14623 9.06748,0.74024 39.80038,-0.45898 51,-1.99005 z m -64.79245,-7.83375 C 189.64385,523.81203 141.71577,501.63521 101.61519,465.25488 65.064533,432.09513 37.867361,386.2022 26.134428,337.88748 20.406606,314.30104 19.5,305.98066 19.5,277 c 0,-28.74045 0.862747,-36.77209 6.498821,-60.5 C 34.343915,181.3671 51.961838,145.80605 75.572624,116.43733 109.88849,73.752895 159.63488,42.171122 213.11252,29.119361 235.67786,23.61206 245.90702,22.5 274,22.5 c 16.23482,0 28.77006,0.488746 34.5,1.345146 56.17995,8.396695 106.48747,33.252496 145.02763,71.654854 13.85375,13.80422 22.60521,24.43126 32.94034,40 22.96074,34.58785 37.02663,73.91717 41.58304,116.26936 2.42088,22.50232 0.44517,56.28104 -4.69268,80.23064 -10.8755,50.69515 -40.41803,101.16781 -79.31051,135.5 -36.64248,32.34602 -79.64198,52.81149 -129.54782,61.65787 -14.64897,2.5967 -55.94192,3.39153 -71.79245,1.3819 z M 276,515 c 0,-7.7 0,-14.3375 0,-14.75 0,-0.4125 -1.0125,-0.75 -2.25,-0.75 -1.2375,0 -2.205,0.5625 -2.15,1.25 0.055,0.6875 0.1675,7.325 0.25,14.75 0.14204,12.78333 0.25617,13.5 2.15,13.5 1.90476,0 2,-0.66667 2,-14 z m -25.62931,-0.75 c 1.70138,-11.67483 1.84891,-16.48988 0.49151,-16.0413 -0.90757,0.29992 -1.71376,3.52082 -2.41557,9.6507 -0.57935,5.06029 -0.84185,9.41205 -0.58333,9.67056 1.20734,1.20735 2.00564,0.16309 2.50739,-3.27996 z m 49.76601,3.27996 c 0.25852,-0.25851 -0.004,-4.61027 -0.58333,-9.67056 -0.70181,-6.12988 -1.508,-9.35078 -2.41557,-9.6507 -1.09821,-0.36293 -1.23553,0.78446 -0.70859,5.92057 1.3474,13.13315 1.91683,15.19135 3.70749,13.40069 z M 225.48489,511.75 c 2.37542,-10.21937 3.26638,-16.37459 2.48495,-17.16722 -0.54599,-0.5538 -1.10098,-0.3557 -1.40074,0.5 -0.99235,2.83275 -3.5691,15.09111 -3.5691,16.97927 0,2.67414 1.84462,2.44249 2.48489,-0.31205 z m 99.52368,0.5 c 0.005,-0.9625 -2.71813,-14.35 -6.05077,-29.75 -3.33264,-15.4 -14.04047,-65.575 -23.79518,-111.5 l -17.73583,-83.5 3.2866,-3.11808 C 282.52103,282.66698 284,280.61256 284,279.81655 c 0,-1.03236 5.5189,-2.94218 19.25,-6.66148 C 448.26125,233.8764 489.26271,222.47896 489.70558,221.32486 490.6743,218.80041 489.04611,215 486.99584,215 c -1.08133,0 -47.53526,12.3922 -103.23095,27.53823 -96.69639,26.29586 -101.38464,27.46884 -103.91918,26 -3.82123,-2.2145 -9.07643,-1.93119 -12.38003,0.66743 l -2.80404,2.20565 -74.74241,-7.84657 c -41.10833,-4.31561 -75.45719,-7.57228 -76.33082,-7.23704 -1.9094,0.73271 -2.18069,6.51106 -0.33841,7.20785 0.6875,0.26002 34.67364,3.98875 75.52476,8.28605 l 74.27477,7.81327 2.72523,3.2212 c 1.49888,1.77166 4.03717,3.56351 5.64063,3.98188 l 2.91539,0.76069 23.72317,111.45068 c 13.04774,61.29787 24.04646,112.23818 24.44159,113.20068 0.39514,0.9625 1.12029,1.75 1.61145,1.75 0.49115,0 0.89687,-0.7875 0.90158,-1.75 z M 203.37582,498.49659 C 206.20149,489.87866 206.50817,488 205.08935,488 c -1.18616,0 -7.22001,17.97957 -6.45128,19.2234 0.96472,1.56095 1.97433,-0.29871 4.73775,-8.72681 z m 143.53197,-1.29373 C 345.21023,492.14129 343.41151,488 342.91065,488 c -1.4304,0 -1.09869,2.09286 1.59681,10.07485 3.63213,10.75557 3.44557,10.37212 4.52246,9.29523 0.61914,-0.61914 -0.14053,-4.25876 -2.12213,-10.16722 z M 180.33243,490.55559 C 184.12051,481.8337 184.60882,480 183.14335,480 182.15742,480 175,495.45533 175,497.58429 c 0,3.36293 1.91601,0.83742 5.33243,-7.0287 z M 373,497.58429 C 373,495.45533 365.84258,480 364.85665,480 c -1.46547,0 -0.97716,1.8337 2.81092,10.55559 3.41642,7.86612 5.33243,10.39163 5.33243,7.0287 z M 157.76285,482.92626 c 6.84854,-11.7174 7.14748,-12.478 5.24042,-13.33335 -1.11233,-0.4989 -2.19777,-0.7239 -2.41208,-0.5 C 159.2017,470.54457 147,492.35857 147,493.39101 c 0,1.68102 1.11427,2.73521 2.4375,2.30608 0.58437,-0.18952 4.33078,-5.93639 8.32535,-12.77083 z m 243.03395,10.87859 c 0.22705,-1.16997 -11.40436,-22.63955 -13.38799,-24.71194 -0.21431,-0.2239 -1.29692,10e-4 -2.40581,0.5 -1.90891,0.85884 -1.69269,1.4656 4.06499,11.40709 3.34463,5.775 6.75127,11.54044 7.57031,12.81209 1.59957,2.4835 3.67585,2.47988 4.1585,-0.007 z m -120.12937,-6.98986 c 2.39913,-2.651 2.34735,-9.03619 -0.0951,-11.73512 -2.03951,-2.25362 -6.47981,-2.73492 -9.63803,-1.04469 -2.31742,1.24025 -2.36079,0.92141 -0.48529,-3.5673 1.08947,-2.60745 2.05154,-3.46788 3.87756,-3.46788 1.33572,0 2.98878,0.675 3.67347,1.5 1.40634,1.69454 4,2.01874 4,0.5 0,-0.55 -0.92564,-1.92564 -2.05697,-3.05697 -2.9549,-2.9549 -8.5914,-2.32131 -11.25798,1.2655 -2.54162,3.41873 -3.42898,12.58126 -1.63734,16.90665 2.26757,5.47439 9.76395,6.96038 13.61972,2.69981 z m -9.01244,-1.64373 C 268.38721,481.56041 270.1121,476 274.5,476 c 2.86431,0 4.5,1.86417 4.5,5.12857 0,2.86819 -2.25902,5.87143 -4.41644,5.87143 -0.70047,0 -2.01833,-0.82293 -2.92857,-1.82874 z M 138.86983,465.36905 c 3.36215,-4.71427 5.01739,-7.88183 4.42718,-8.47204 -0.59022,-0.59022 -3.06527,2.00537 -6.61984,6.94224 -6.00532,8.34066 -6.4185,9.19087 -4.42717,9.10996 0.6875,-0.0279 3.66643,-3.43901 6.61983,-7.58016 z M 417,472.36207 c 0,-0.35086 -2.55473,-4.18613 -5.67717,-8.52282 -3.55457,-4.93687 -6.02962,-7.53246 -6.61984,-6.94224 -1.11016,1.11016 9.11893,15.97386 11.04701,16.0522 0.6875,0.0279 1.25,-0.23628 1.25,-0.58714 z m -35.68426,-12.52541 c 3.31918,-1.76781 4.61744,-3.97574 4.65246,-7.91235 0.0445,-5.00409 -3.54466,-8.30931 -8.40675,-7.74169 -3.82959,0.44708 -3.83535,0.44132 -2.93116,-2.93262 0.52093,-1.94385 1.26743,-2.25 5.48634,-2.25 3.67411,0 4.88337,-0.37144 4.88337,-1.5 0,-1.17692 -1.37702,-1.5 -6.39315,-1.5 h -6.39315 l -1.08933,6.18419 c -0.59912,3.40131 -0.88663,6.38688 -0.63891,6.6346 0.24773,0.24773 1.77211,-0.097 3.38753,-0.76618 4.35329,-1.80319 7.31673,-1.01599 8.3927,2.22943 2.018,6.08686 -5.84018,10.94072 -8.44764,5.21796 -1.733,-3.80352 -4.62787,-2.62687 -3.3606,1.36595 1.10748,3.48934 6.90595,5.07574 10.85829,2.97071 z M 176.02374,457.75 c 0.0307,-2.91533 4.02566,-12.60626 6.80673,-16.51191 C 186.72761,435.76505 186.01255,435 177,435 c -7.33333,0 -8,0.16667 -8,2 0,1.75724 0.66667,2 5.49234,2 h 5.49234 l -2.99297,5.75 c -1.64613,3.1625 -3.38459,7.8875 -3.86323,10.5 -0.78492,4.28418 -0.68679,4.75 1.00063,4.75 1.26648,0 1.87856,-0.72688 1.89463,-2.25 z m -50.05806,-15.07332 c 0.0853,-2.04598 -3.08077,0.36023 -8.77891,6.67199 -3.40056,3.76676 -5.8839,7.33236 -5.51853,7.92355 0.63749,1.03148 14.2242,-12.83852 14.29744,-14.59554 z M 435.76072,455.0858 C 430.94632,448.27727 422,440.16012 422,442.60044 c 0,1.37343 13.30004,15.33216 14.12365,14.82314 0.49433,-0.30551 0.33123,-1.35611 -0.36293,-2.33778 z M 103.34856,432.32365 c 4.99454,-4.57466 6.89046,-7.32365 5.051,-7.32365 -1.37343,0 -15.332162,13.30004 -14.82314,14.12365 0.686377,1.11058 2.55563,-0.19015 9.77214,-6.8 z m 344.57499,-0.45561 c -7.42157,-6.79759 -9.35455,-8.02472 -8.74687,-5.55285 0.53501,2.1763 13.93702,13.73257 15.09554,13.01657 0.62454,-0.38599 -2.03533,-3.51303 -6.34867,-7.46372 z M 87.160754,414.32283 c 4.936866,-3.55457 7.532455,-6.02962 6.942239,-6.61984 -1.11016,-1.11016 -15.973863,9.11893 -16.052204,11.04701 -0.08091,1.99133 0.769303,1.57815 9.109965,-4.42717 z M 469.94921,418.75 c -0.0781,-1.92116 -14.94183,-12.15738 -16.04767,-11.05154 -0.58418,0.58418 1.99283,3.07202 6.83016,6.59384 8.16175,5.94217 9.3002,6.49273 9.21751,4.4577 z M 70.192324,397.39923 c 6.219222,-3.63042 11.490866,-6.77611 11.714764,-6.99042 0.223899,-0.21431 -0.0011,-1.29674 -0.5,-2.40541 -0.856912,-1.90424 -1.54322,-1.64916 -12.407088,4.61142 -12.797915,7.37513 -14.542248,8.69879 -13.559307,10.28922 1.213278,1.96312 3.278925,1.1923 14.751631,-5.50481 z M 492.5,402.02313 c 0,-0.83515 -5.43146,-4.64276 -12.5,-8.76285 -12.00832,-6.99939 -12.53726,-7.20288 -13.44735,-5.17332 -0.6969,1.55413 -0.56472,2.33863 0.5,2.96743 0.79604,0.47013 5.94735,3.54617 11.44735,6.83565 9.7841,5.85173 14,7.09635 14,4.13309 z M 106.54545,389.54545 c 2.77637,-2.77636 3.21168,-7.05135 0.97023,-9.52812 -1.20287,-1.32916 -1.26666,-2.21679 -0.33642,-4.68128 1.39929,-3.70716 0.73274,-5.69238 -2.65699,-7.91342 -3.51235,-2.30138 -8.522963,-0.88977 -10.352371,2.91651 -1.148925,2.39046 -1.100504,3.11782 0.355477,5.33993 1.112107,1.69729 1.326418,2.79449 0.629915,3.22496 -1.880994,1.16251 -2.948784,5.46653 -1.988326,8.01447 2.075852,5.50692 9.116125,6.88932 13.378485,2.62695 z M 97.2,387.8 c -3.16821,-3.16821 0.541977,-9.20325 4.94936,-8.05069 2.84551,0.74412 4.35749,4.43512 2.91834,7.1242 -1.27184,2.37645 -5.875604,2.91859 -7.8677,0.92649 z m 1.55,-11.8801 C 95.775349,374.18733 97.183572,369 100.62857,369 c 1.40357,0 4.37143,2.71569 4.37143,4 0,1.0335 -2.86765,4.01233 -3.82143,3.96959 -0.37321,-0.0167 -1.46607,-0.48908 -2.42857,-1.04969 z m 355.06642,11.82155 c 0.18082,-1.56658 0.9308,-2.74145 1.75,-2.74145 0.78847,0 1.43358,-0.675 1.43358,-1.5 0,-0.825 -0.6568,-1.5 -1.45956,-1.5 -1.13799,0 -1.52354,-1.81759 -1.75,-8.25 -0.21872,-6.21287 -0.63164,-8.25 -1.67223,-8.25 -1.84839,0 -13.55946,16.97703 -12.68599,18.39032 0.3772,0.61033 2.90926,1.10968 5.6268,1.10968 4.84951,0 4.94098,0.0569 4.94098,3.07332 0,2.38674 0.39095,2.99919 1.75,2.74145 1.05548,-0.20016 1.87558,-1.41987 2.06642,-3.07332 z M 443,381.43328 c 0,-0.51083 4.18453,-6.51138 6.19483,-8.88328 0.44284,-0.5225 0.80517,1.39 0.80517,4.25 v 5.2 h -3.5 c -1.925,0 -3.5,-0.25502 -3.5,-0.56672 z M 62.915709,372.35665 C 70.185778,369.08025 72.904962,367 69.917613,367 c -1.769246,0 -15.295543,6.09314 -16.881899,7.60473 -2.659285,2.53395 1.235516,1.64773 9.879995,-2.24808 z m 432.048581,2.24808 C 493.37793,373.09314 479.85163,367 478.08239,367 c -2.93353,0 -0.32534,2.06878 6.66761,5.28863 8.30607,3.82448 12.8875,4.86332 10.21429,2.3161 z M 54.75,349.56453 C 62.110393,347.13 65.34196,345 61.675152,345 c -1.071319,0 -11.37646,3.24111 -17.488534,5.50039 -0.72236,0.26702 -1.014342,0.96934 -0.648849,1.56072 0.365493,0.59138 1.181514,0.88555 1.813382,0.65372 0.631867,-0.23184 4.861349,-1.64947 9.398849,-3.1503 z m 449.575,2.0014 C 504.49646,350.69974 488.84522,345 486.29523,345 c -3.66755,0 -0.32884,2.16467 7.45477,4.83333 8.9388,3.06473 10.26819,3.28254 10.575,1.7326 z M 47.687947,326.46369 c 9.02752,-2.03597 9.827625,-2.35067 8.72927,-3.43353 C 55.624593,322.24873 49.469372,323.13969 39.25,325.51511 36.495462,326.15538 36.263814,328 38.937947,328 c 1.065871,0 5.003371,-0.69134 8.75,-1.53631 z M 511,327.01905 c 0,-1.04522 -0.62861,-1.23435 -11.5,-3.46005 -4.17726,-0.85521 -7.36987,-1.06846 -7.91722,-0.52884 -1.07829,1.06308 -0.26624,1.40504 7.91722,3.334 7.31668,1.72465 11.5,1.96288 11.5,0.65489 z M 53,300.24249 c 0,-1.16656 -1.1828,-1.31782 -6.25,-0.79927 -12.921649,1.32234 -15.063027,1.91042 -13.31642,3.65703 0.238469,0.23847 4.738469,0.0168 10,-0.49266 C 50.660579,301.90785 53,301.32948 53,300.24249 Z m 462,1.78639 c 0,-0.89345 -3.32624,-1.51894 -13.75,-2.58566 -5.10685,-0.52261 -6.25,-0.37234 -6.25,0.82155 0,1.11 2.22303,1.682 9.25,2.38008 9.47301,0.94109 10.75,0.86792 10.75,-0.61597 z m -38.07152,-12.49189 c 4.57062,-2.36356 5.76109,-9.24016 2.04969,-11.83973 -1.78573,-1.25077 -1.84411,-1.56363 -0.5,-2.67914 0.83701,-0.69466 1.52183,-2.33291 1.52183,-3.64056 0,-6.1289 -9.00068,-8.73475 -12.92742,-3.7427 -2.56776,3.26437 -2.61547,4.36514 -0.18921,4.36514 1.04236,0 2.11691,-0.89308 2.40638,-2 0.64214,-2.45555 4.87181,-2.71519 6.77982,-0.41618 1.67098,2.01341 0.12583,4.78233 -2.9217,5.23573 -3.16546,0.47094 -2.61123,2.83778 0.82546,3.52512 3.81478,0.76295 5.11837,4.79153 2.4902,7.69562 -2.41323,2.6666 -5.08848,2.46174 -7.05549,-0.54029 C 467.66748,282.84357 465,282.12277 465,284.30887 c 0,2.60629 4.66174,6.5873 7.79966,6.66072 0.71481,0.0167 2.57278,-0.62795 4.12882,-1.4326 z m -396.935704,-2.0293 c 2.499358,-2.66045 3.855339,-10.9924 2.601788,-15.98694 C 81.041366,265.33232 73.256479,262.74352 69,267 c -2.443084,2.44308 -2.674523,8.59197 -0.443296,11.77749 1.770448,2.52767 8.088916,3.12009 10.372404,0.97251 1.094464,-1.02932 1.210516,-0.72037 0.657359,1.75 -0.369462,1.65 -1.617197,3.79947 -2.772744,4.7766 -1.909614,1.61477 -2.292863,1.63626 -4.207359,0.23587 -4.903249,-3.58655 -6.898956,-3.13416 -4.218769,0.95632 2.315947,3.53458 8.302305,3.55465 11.605181,0.0389 z M 71.2,276.8 c -2.242214,-2.24221 -1.207504,-7.19043 1.845207,-8.82419 C 77.047629,265.83377 80.848937,270.63693 79,275.5 78.29575,277.35232 77.317686,278 75.224751,278 73.671138,278 71.86,277.46 71.2,276.8 Z M 51.84378,276.42733 C 51.654701,275.44552 51.1625,274.72272 50.75,274.82111 50.3375,274.9195 43.7,275 36,275 c -13.268376,0 -14,0.10308 -14,1.97254 0,1.85813 0.826557,1.98864 14.25,2.25 7.8375,0.1526 14.629701,-0.0122 15.09378,-0.36632 0.464079,-0.35408 0.689079,-1.44708 0.5,-2.42889 z M 526,277 c 0,-1.7628 -1.03668,-1.9186 -14.62909,-2.19862 -11.00937,-0.22681 -14.74733,0.008 -15.10698,0.94862 -1.29904,3.39775 0.2634,3.75442 15.10698,3.44862 C 524.96332,278.9186 526,278.7628 526,277 Z M 52.753902,253.75 c -0.492776,-1.4923 -18.596099,-3.81435 -19.414456,-2.49022 -0.899789,1.45589 0.186182,1.85398 7.317513,2.68242 10.664599,1.2389 12.559566,1.20879 12.096943,-0.1922 z m 458.547248,-0.38795 c 2.09064,-0.30532 3.65439,-0.99544 3.475,-1.53359 -0.41102,-1.23306 0.33949,-1.20823 -10.52615,-0.34825 -7.20646,0.57037 -9.25,1.06174 -9.25,2.22414 0,1.5011 4.29661,1.41088 16.30115,-0.3423 z M 56.325,230.51174 c 0.177929,-0.95396 -12.967852,-4.39592 -17.075,-4.47075 -1.2375,-0.0225 -2.25,0.40044 -2.25,0.93996 0,1.03069 0.567469,1.20741 11,3.42547 7.079638,1.5052 8.061583,1.51763 8.325,0.10532 z m 446.98138,-0.90539 c 7.03089,-1.43148 8.52708,-2.10623 7.32836,-3.30494 -0.64011,-0.64011 -17.13128,2.30316 -18.90105,3.37338 -1.52788,0.92394 0.44372,2.31983 2.5776,1.82494 1.20379,-0.27919 5.25158,-1.13121 8.99509,-1.89338 z M 63,208.08935 c 0,-1.46423 -18.257374,-7.23198 -19.370081,-6.11927 -0.619138,0.61914 -0.457024,1.15364 0.452864,1.49313 C 57.334227,208.40746 63,209.793 63,208.08935 Z m 432.07485,-1.59681 c 10.75557,-3.63213 10.37212,-3.44557 9.29523,-4.52246 C 503.25737,200.85737 485,206.62512 485,208.08935 c 0,1.4304 2.09286,1.09869 10.07485,-1.59681 z M 104,177.5 c 0,-8.19181 -0.36784,-12.5 -1.06726,-12.5 -1.61897,0 -8.89416,6.32468 -8.914714,7.75 -0.02401,1.66523 1.071771,1.57583 3.759468,-0.3067 L 100,170.88659 v 9.55671 c 0,8.89003 0.13952,9.5567 2,9.5567 1.89333,0 2,-0.66667 2,-12.5 z m 20.51232,10.84482 c 4.92095,-4.92094 4.55805,-19.63124 -0.55176,-22.36593 -2.92869,-1.56739 -7.51031,-1.1339 -9.33586,0.88332 -4.09004,4.51945 -4.33968,15.68783 -0.46088,20.61893 2.35252,2.99073 7.76936,3.44282 10.3485,0.86368 z m -8.47714,-3.27908 c -1.61257,-3.01311 -1.27464,-13.27885 0.52152,-15.84323 1.9064,-2.72176 3.59662,-2.81556 5.85081,-0.32471 2.04786,2.26286 2.43493,14.3822 0.53255,16.67443 -1.70318,2.0522 -5.6921,1.75961 -6.90488,-0.50649 z M 452,188.5 c 0,-1.17294 -1.35941,-1.5 -6.23473,-1.5 h -6.23473 l 6.23473,-5.93277 c 6.72057,-6.39507 7.75391,-9.45328 4.67803,-13.84472 C 447.27056,162.69279 436,165.39746 436,170.68856 c 0,1.82318 2.93313,1.64928 3.64903,-0.21634 0.32245,-0.84028 1.4635,-1.99726 2.53568,-2.57107 2.35365,-1.25964 6.81529,1.20654 6.81529,3.76716 0,0.89221 -2.87209,4.4802 -6.38242,7.97331 -3.51033,3.49311 -6.6182,7.25274 -6.90638,8.35474 C 435.21761,189.88387 435.67448,190 443.59362,190 450.39929,190 452,189.71438 452,188.5 Z M 71,186.14335 C 71,185.09935 55.48324,178 53.201424,178 c -2.882272,0 0.668332,2.50835 8.298576,5.8626 7.277196,3.19905 9.5,3.73269 9.5,2.28075 z m 415.33239,-2.24808 C 494.07731,180.54047 497.72568,178 494.79858,178 492.51676,178 477,185.09935 477,186.14335 c 0,1.43668 1.86019,0.98858 9.33239,-2.24808 z M 81.907088,163.59119 c -2.152039,-2.05987 -23.566542,-13.61084 -24.7948,-13.3743 -3.879587,0.74714 -0.834408,3.69027 10.887712,10.52283 11.787656,6.87077 12.551693,7.17073 13.407088,5.26355 0.498899,-1.11233 0.723899,-2.19777 0.5,-2.41208 z M 483.5,158.76184 c 8.543,-5.0494 10.96888,-7.85528 7.38771,-8.54495 -1.20387,-0.23184 -22.5872,11.27612 -24.72902,13.30852 -0.18771,0.17813 -0.0466,1.25234 0.31355,2.38713 0.65404,2.06068 0.65948,2.06083 4.34131,0.11604 2.02755,-1.07098 7.73645,-4.34101 12.68645,-7.26674 z M 94.413077,146.14064 C 94.895648,145.35983 80.135064,134 78.637927,134 c -2.308579,0 0.498494,3.2458 6.664794,7.70647 7.578336,5.48212 8.258187,5.81301 9.110356,4.43417 z M 462.5338,141.75 c 6.29777,-4.48947 9.17051,-7.75 6.82827,-7.75 -1.49713,0 -16.25772,11.35983 -15.77515,12.14064 0.82466,1.33433 1.11769,1.19053 8.94688,-4.39064 z M 108.82332,127.68481 c -0.53501,-2.1763 -13.937023,-13.73257 -15.095539,-13.01657 -0.624545,0.38599 2.035327,3.51303 6.348669,7.46372 7.42157,6.79759 9.35455,8.02472 8.74687,5.55285 z m 339.10023,-5.55285 c 4.31334,-3.95069 6.97321,-7.07773 6.34867,-7.46372 -1.15852,-0.716 -14.56053,10.84027 -15.09554,13.01657 -0.60768,2.47187 1.3253,1.24474 8.74687,-5.55285 z M 376,108.5 c 0,-6.875 -0.25527,-12.5 -0.56726,-12.5 -1.25019,0 -8.39789,6.58307 -8.41471,7.75 -0.0236,1.63749 0.55214,1.57774 3.51715,-0.36501 L 373,101.76998 v 9.61501 c 0,7.88001 0.27067,9.61501 1.5,9.61501 1.25333,0 1.5,-2.05556 1.5,-12.5 z m -205,-1 c 0,-6.875 -0.25527,-12.5 -0.56726,-12.5 -1.25019,0 -8.39789,6.58307 -8.41471,7.75 -0.0236,1.63749 0.55214,1.57774 3.51715,-0.36501 L 168,100.76998 v 9.61501 c 0,7.88001 0.27067,9.61501 1.5,9.61501 1.25333,0 1.5,-2.05556 1.5,-12.5 z m 17,0 C 188,100.625 187.60656,95 187.12569,95 185.7432,95 179,101.51167 179,102.84668 c 0,0.86253 0.85205,0.76407 3,-0.34668 l 3,-1.55136 v 9.52568 c 0,7.8006 0.27165,9.52568 1.5,9.52568 1.25333,0 1.5,-2.05556 1.5,-12.5 z m -62.03432,3.75 c -0.077,-1.68185 -13.677,-15.526106 -14.28532,-14.541832 -0.75755,1.225746 11.20843,15.188122 13.06964,15.250162 0.6875,0.0229 1.23456,-0.29583 1.21568,-0.70833 z m 304.84755,-6.59867 c 3.40056,-3.76676 5.8839,-7.332362 5.51853,-7.923549 -0.63749,-1.031478 -14.2242,12.838519 -14.29744,14.595539 -0.0853,2.04598 3.08077,-0.36023 8.77891,-6.67199 z M 138.86983,88.630954 c -2.9534,-4.141156 -5.93233,-7.552231 -6.61983,-7.580165 -1.99133,-0.08091 -1.57815,0.769303 4.42717,9.109965 3.55457,4.936866 6.02962,7.532455 6.61984,6.942239 0.59021,-0.590217 -1.06503,-3.757772 -4.42718,-8.472039 z m 272.46943,1.506973 c 5.98878,-8.317675 6.40152,-9.168026 4.41074,-9.087138 -1.70595,0.06932 -12.02491,14.695377 -11.25115,15.947346 C 404.8394,97.549161 405.24414,98 405.39828,98 c 0.15414,0 2.82758,-3.537933 5.94098,-7.862073 z M 269,77.666667 C 269,70.883333 268.72195,65.055282 268.38211,64.715441 267.51717,63.850499 259,71.132947 259,72.737443 c 0,1.032458 0.64264,0.981595 3,-0.237443 l 3,-1.55136 v 9.52568 C 265,89.333333 265.13997,90 267,90 c 1.89189,0 2,-0.666667 2,-12.333333 z M 293,88.5 c 0,-1.166667 -1.33333,-1.5 -6,-1.5 -3.3,0 -6,-0.354707 -6,-0.788238 0,-0.43353 2.07302,-2.521065 4.6067,-4.638965 4.83168,-4.038784 7.45416,-8.624077 6.6629,-11.649828 -1.8248,-6.978071 -13.74277,-6.869578 -15.57629,0.141796 C 276.32358,71.47863 276.70084,72 278.09362,72 279.14213,72 280,71.315353 280,70.478561 c 0,-2.33726 4.29269,-3.927468 6.87351,-2.546258 3.61949,1.937095 2.5138,5.006395 -4.37351,12.140405 C 273.66626,89.222873 273.82282,90 284.5,90 c 6.88889,0 8.5,-0.284314 8.5,-1.5 z M 163.73246,84.186512 c 0.89075,-0.56581 -0.7792,-4.235205 -6.02313,-13.234687 -6.79479,-11.66103 -9.74596,-14.715696 -10.48909,-10.856946 -0.36912,1.916724 12.80603,24.911672 14.26083,24.889808 0.56041,-0.0084 1.57354,-0.367601 2.25139,-0.798175 z M 394.31238,73.344879 c 3.72599,-6.410317 6.63631,-12.372817 6.46738,-13.25 -0.74313,-3.85875 -3.6943,-0.804084 -10.48909,10.856946 -7.02709,12.059683 -7.54221,13.976198 -3.77174,14.032862 0.56041,0.0084 4.06746,-5.229492 7.79345,-11.639808 z M 184,72.944413 C 184,71.059963 176.69015,55 175.83243,55 c -1.56224,0 -0.83403,2.827862 2.81092,10.915709 C 181.90878,73.161441 184,75.905424 184,72.944413 Z M 369.35665,65.915709 C 373.0016,57.827862 373.72981,55 372.16757,55 371.30985,55 364,71.059963 364,72.944413 c 0,2.961011 2.09122,0.217028 5.35665,-7.028704 z M 206,64.675152 c 0,-0.728666 -1.12836,-4.666166 -2.50746,-8.75 -3.63213,-10.755569 -3.44557,-10.372125 -4.52246,-9.295233 C 197.85737,47.742626 203.62512,66 205.08935,66 205.59021,66 206,65.403819 206,64.675152 Z m 140.90779,-7.878016 c 1.9816,-5.90846 2.74127,-9.548079 2.12213,-10.167217 -1.07689,-1.076892 -0.89033,-1.460336 -4.52246,9.295233 C 341.81196,63.907138 341.48025,66 342.91065,66 c 0.50086,0 2.29958,-4.141289 3.99714,-9.202864 z M 227.05251,49.705882 c -1.83631,-8.93472 -2.50125,-10.59048 -3.7511,-9.340625 -0.65571,0.655712 2.31595,17.154251 3.41715,18.971875 0.27895,0.460423 0.87487,0.460423 1.32427,0 0.4494,-0.460422 0.004,-4.794485 -0.99032,-9.63125 z m 96.55442,0.07604 c 1.60803,-7.830689 1.52543,-11.247614 -0.22948,-9.492708 -0.96761,0.967606 -4.27482,18.067824 -3.68037,19.029662 1.05227,1.702609 2.15331,-0.983059 3.90985,-9.536954 z M 251.55678,49.75 c -1.10767,-10.823878 -1.7205,-13.862095 -2.72832,-13.526153 -1.21486,0.404952 -1.21995,0.529859 -0.41513,10.180305 C 249.10741,54.726785 249.47148,56 251.1572,56 c 0.67628,0 0.81581,-2.182619 0.39958,-6.25 z m 47.99659,-3.609396 c 0.57935,-5.060293 0.84185,-9.412049 0.58333,-9.670569 -1.79066,-1.790659 -2.36009,0.267543 -3.70749,13.400698 -0.52694,5.136111 -0.38962,6.283493 0.70859,5.920569 0.90757,-0.299924 1.71376,-3.520821 2.41557,-9.650698 z M 276.25,53.75 C 276.1125,53.3375 276,46.7 276,39 c 0,-13.150044 -0.11683,-14 -1.92442,-14 -1.79301,0 -1.94802,0.973014 -2.27019,14.25 -0.19017,7.8375 -0.18172,14.613234 0.0188,15.057186 0.45639,1.010548 4.76749,0.467806 4.42583,-0.557186 z"
         id="path255" />
      <path
         style="fill:#8e8e8e"
         d="M 256.5,540.36357 C 219.6487,537.35517 180.62715,526.20491 151,510.21734 92.000141,478.37951 46.923487,426.20674 25.533221,364.99916 11.649744,325.27203 7.14669,282.60537 12.604617,242.5 26.06487,143.59276 93.239606,61.190691 187.40183,28.079321 216.51516,17.841861 253.86177,12.10284 283,13.388835 350.98769,16.389423 411.94102,42.887491 459.85334,90.271783 518.71946,148.48917 546.72561,231.9186 534.9559,314 526.89005,370.25094 502.57423,419.54229 462.5,460.87763 c -41.49941,42.80537 -94.28208,69.1953 -155,77.49589 -11.19962,1.53107 -41.93252,2.73029 -51,1.99005 z m 58,-11.2057 C 381.9319,517.2048 438.5082,483.04247 478.0935,430.37561 503.32321,396.80835 519.10182,359.2552 526.57056,315 c 2.19559,-13.00975 3.03346,-48.79528 1.48045,-63.23064 C 523.4946,209.41717 509.42871,170.08785 486.46797,135.5 476.13284,119.93126 467.38138,109.30422 453.52763,95.5 414.98747,57.097642 364.67995,32.241841 308.5,23.845146 294.54167,21.758925 251.49595,22.031581 237,24.298035 181.78352,32.931182 132.15504,57.921673 93.538358,96.538358 60.691989,129.38473 36.473776,172.40037 25.998821,216.5 20.362747,240.22791 19.5,248.25955 19.5,277 c 0,28.98066 0.906606,37.30104 6.634428,60.88748 11.732933,48.31472 38.930105,94.20765 75.480762,127.3674 40.10058,36.38033 88.02866,58.55715 141.09236,65.28489 15.85053,2.00963 57.14348,1.2148 71.79245,-1.3819 z M 250.15789,512 c 0,-1.375 0.22698,-1.9375 0.50439,-1.25 0.27741,0.6875 0.27741,1.8125 0,2.5 -0.27741,0.6875 -0.50439,0.125 -0.50439,-1.25 z m 47,0 c 0,-1.375 0.22698,-1.9375 0.50439,-1.25 0.27741,0.6875 0.27741,1.8125 0,2.5 -0.27741,0.6875 -0.50439,0.125 -0.50439,-1.25 z m -49,-3 c 0,-1.375 0.22698,-1.9375 0.50439,-1.25 0.27741,0.6875 0.27741,1.8125 0,2.5 -0.27741,0.6875 -0.50439,0.125 -0.50439,-1.25 z m 51,0 c 0,-1.375 0.22698,-1.9375 0.50439,-1.25 0.27741,0.6875 0.27741,1.8125 0,2.5 -0.27741,0.6875 -0.50439,0.125 -0.50439,-1.25 z m -100.69901,-2.06653 c -0.36253,-0.58659 -0.44468,-1.281 -0.18255,-1.54313 0.26212,-0.26213 0.74306,0.21781 1.06875,1.06653 0.67618,1.76211 0.0999,2.07206 -0.8862,0.4766 z m 150.10541,-0.2266 c 0.37553,-0.98622 0.93469,-1.54122 1.24258,-1.23333 0.30789,0.30789 6.4e-4,1.11479 -0.68278,1.79313 -0.98762,0.98026 -1.10248,0.8654 -0.5598,-0.5598 z M 251.15789,502 c 0,-1.375 0.22698,-1.9375 0.50439,-1.25 0.27741,0.6875 0.27741,1.8125 0,2.5 -0.27741,0.6875 -0.50439,0.125 -0.50439,-1.25 z m 45,0 c 0,-1.375 0.22698,-1.9375 0.50439,-1.25 0.27741,0.6875 0.27741,1.8125 0,2.5 -0.27741,0.6875 -0.50439,0.125 -0.50439,-1.25 z M 116,453.62244 c 0,-0.20765 0.7875,-0.99515 1.75,-1.75 1.58606,-1.24387 1.62143,-1.2085 0.37756,0.37756 C 116.82119,453.91575 116,454.44548 116,453.62244 Z M 429.87244,452.25 c -1.24387,-1.58606 -1.2085,-1.62143 0.37756,-0.37756 0.9625,0.75485 1.75,1.54235 1.75,1.75 0,0.82304 -0.82119,0.29331 -2.12756,-1.37244 z m 3,0 c -1.24387,-1.58606 -1.2085,-1.62143 0.37756,-0.37756 0.9625,0.75485 1.75,1.54235 1.75,1.75 0,0.82304 -0.82119,0.29331 -2.12756,-1.37244 z M 97,437.62244 c 0,-0.20765 0.7875,-0.99515 1.75,-1.75 1.58606,-1.24387 1.62143,-1.2085 0.377555,0.37756 C 97.821186,437.91575 97,438.44548 97,437.62244 Z m 0,-3 c 0,-0.20765 0.7875,-0.99515 1.75,-1.75 1.58606,-1.24387 1.62143,-1.2085 0.377555,0.37756 C 97.821186,434.91575 97,435.44548 97,434.62244 Z M 448.87244,433.25 c -1.24387,-1.58606 -1.2085,-1.62143 0.37756,-0.37756 0.9625,0.75485 1.75,1.54235 1.75,1.75 0,0.82304 -0.82119,0.29331 -2.12756,-1.37244 z M 40.75,302.33772 c 0.6875,-0.27741 1.8125,-0.27741 2.5,0 0.6875,0.27741 0.125,0.50439 -1.25,0.50439 -1.375,0 -1.9375,-0.22698 -1.25,-0.50439 z m 464,0 c 0.6875,-0.27741 1.8125,-0.27741 2.5,0 0.6875,0.27741 0.125,0.50439 -1.25,0.50439 -1.375,0 -1.9375,-0.22698 -1.25,-0.50439 z M 50.8125,301.31689 c 0.721875,-0.28887 1.584375,-0.25335 1.916667,0.0789 0.332291,0.33229 -0.258334,0.56864 -1.3125,0.52522 -1.164943,-0.048 -1.4019,-0.28494 -0.604167,-0.60416 z m 445,0 c 0.72187,-0.28887 1.58438,-0.25335 1.91667,0.0789 0.33229,0.33229 -0.25834,0.56864 -1.3125,0.52522 -1.16495,-0.048 -1.4019,-0.28494 -0.60417,-0.60416 z M 37.75,300.33772 c 0.6875,-0.27741 1.8125,-0.27741 2.5,0 0.6875,0.27741 0.125,0.50439 -1.25,0.50439 -1.375,0 -1.9375,-0.22698 -1.25,-0.50439 z m 470,0 c 0.6875,-0.27741 1.8125,-0.27741 2.5,0 0.6875,0.27741 0.125,0.50439 -1.25,0.50439 -1.375,0 -1.9375,-0.22698 -1.25,-0.50439 z m -460,-1 c 0.6875,-0.27741 1.8125,-0.27741 2.5,0 0.6875,0.27741 0.125,0.50439 -1.25,0.50439 -1.375,0 -1.9375,-0.22698 -1.25,-0.50439 z m 450,0 c 0.6875,-0.27741 1.8125,-0.27741 2.5,0 0.6875,0.27741 0.125,0.50439 -1.25,0.50439 -1.375,0 -1.9375,-0.22698 -1.25,-0.50439 z M 266.40499,283.75 264.5,281.5 l 2.25,1.90499 c 2.11444,1.79022 2.70524,2.59501 1.90499,2.59501 -0.18976,0 -1.20226,-1.0125 -2.25,-2.25 z M 280.5,284 c 0.99549,-1.1 2.03498,-2 2.30998,-2 0.275,0 -0.31449,0.9 -1.30998,2 -0.99549,1.1 -2.03498,2 -2.30998,2 -0.275,0 0.31449,-0.9 1.30998,-2 z m -14,-14 c 0.99549,-1.1 2.03498,-2 2.30998,-2 0.275,0 -0.31449,0.9 -1.30998,2 -0.99549,1.1 -2.03498,2 -2.30998,2 -0.275,0 0.31449,-0.9 1.30998,-2 z M 47.75,254.33772 c 0.6875,-0.27741 1.8125,-0.27741 2.5,0 0.6875,0.27741 0.125,0.50439 -1.25,0.50439 -1.375,0 -1.9375,-0.22698 -1.25,-0.50439 z m 450,0 c 0.6875,-0.27741 1.8125,-0.27741 2.5,0 0.6875,0.27741 0.125,0.50439 -1.25,0.50439 -1.375,0 -1.9375,-0.22698 -1.25,-0.50439 z m -460,-1 c 0.6875,-0.27741 1.8125,-0.27741 2.5,0 0.6875,0.27741 0.125,0.50439 -1.25,0.50439 -1.375,0 -1.9375,-0.22698 -1.25,-0.50439 z m 470,0 c 0.6875,-0.27741 1.8125,-0.27741 2.5,0 0.6875,0.27741 0.125,0.50439 -1.25,0.50439 -1.375,0 -1.9375,-0.22698 -1.25,-0.50439 z m -11.9375,-1.02083 c 0.72187,-0.28887 1.58438,-0.25335 1.91667,0.0789 0.33229,0.33229 -0.25834,0.56864 -1.3125,0.52522 -1.16495,-0.048 -1.4019,-0.28494 -0.60417,-0.60416 z M 40.75,251.33772 c 0.6875,-0.27741 1.8125,-0.27741 2.5,0 0.6875,0.27741 0.125,0.50439 -1.25,0.50439 -1.375,0 -1.9375,-0.22698 -1.25,-0.50439 z m 464,0 c 0.6875,-0.27741 1.8125,-0.27741 2.5,0 0.6875,0.27741 0.125,0.50439 -1.25,0.50439 -1.375,0 -1.9375,-0.22698 -1.25,-0.50439 z M 447.5,179 c 0.99549,-1.1 2.03498,-2 2.30998,-2 0.275,0 -0.31449,0.9 -1.30998,2 -0.99549,1.1 -2.03498,2 -2.30998,2 -0.275,0 0.31449,-0.9 1.30998,-2 z M 97.872445,120.25 c -1.243871,-1.58606 -1.208501,-1.62143 0.377555,-0.37756 0.9625,0.75485 1.75,1.54235 1.75,1.75 0,0.82304 -0.821186,0.29331 -2.127555,-1.37244 z M 448,121.62244 c 0,-0.20765 0.7875,-0.99515 1.75,-1.75 1.58606,-1.24387 1.62143,-1.2085 0.37756,0.37756 C 448.82119,121.91575 448,122.44548 448,121.62244 Z M 97.872445,117.25 c -1.243871,-1.58606 -1.208501,-1.62143 0.377555,-0.37756 0.9625,0.75485 1.75,1.54235 1.75,1.75 0,0.82304 -0.821186,0.29331 -2.127555,-1.37244 z m 15.999995,-16 c -1.24387,-1.586056 -1.2085,-1.621426 0.37756,-0.37756 0.9625,0.75485 1.75,1.54235 1.75,1.75 0,0.82304 -0.82119,0.29331 -2.12756,-1.37244 z m 3,0 c -1.24387,-1.586056 -1.2085,-1.621426 0.37756,-0.37756 0.9625,0.75485 1.75,1.54235 1.75,1.75 0,0.82304 -0.82119,0.29331 -2.12756,-1.37244 z M 429,102.62244 c 0,-0.20765 0.7875,-0.99515 1.75,-1.75 1.58606,-1.243866 1.62143,-1.208496 0.37756,0.37756 C 429.82119,102.91575 429,103.44548 429,102.62244 Z m 3,0 c 0,-0.20765 0.7875,-0.99515 1.75,-1.75 1.58606,-1.243866 1.62143,-1.208496 0.37756,0.37756 C 432.82119,102.91575 432,103.44548 432,102.62244 Z M 284,78.622445 c 0,-0.207656 0.7875,-0.995156 1.75,-1.75 1.58606,-1.243871 1.62143,-1.208501 0.37756,0.377555 C 284.82119,78.915748 284,79.445479 284,78.622445 Z M 251.15789,52 c 0,-1.375 0.22698,-1.9375 0.50439,-1.25 0.27741,0.6875 0.27741,1.8125 0,2.5 -0.27741,0.6875 -0.50439,0.125 -0.50439,-1.25 z m 19.92106,0.416667 c 0.048,-1.164943 0.28494,-1.4019 0.60416,-0.604167 0.28887,0.721875 0.25335,1.584375 -0.0789,1.916667 -0.33229,0.332291 -0.56864,-0.258334 -0.52522,-1.3125 z M 296.15789,52 c 0,-1.375 0.22698,-1.9375 0.50439,-1.25 0.27741,0.6875 0.27741,1.8125 0,2.5 -0.27741,0.6875 -0.50439,0.125 -0.50439,-1.25 z m -98.07894,-3.690983 c -0.11408,-1.720881 1.6556,-2.547535 2.50646,-1.17082 0.43129,0.697845 0.29172,0.903902 -0.34549,0.510081 -0.58801,-0.363407 -1.29701,-0.09543 -1.57556,0.595491 -0.3625,0.899142 -0.52891,0.917689 -0.58541,0.06525 z m 150.48534,-1.015889 c -0.54268,-1.425198 -0.42782,-1.540062 0.5598,-0.559795 0.68342,0.678334 0.99067,1.485241 0.68278,1.793128 -0.30789,0.307888 -0.86705,-0.247112 -1.24258,-1.233333 z M 248.19495,45.5 c 0.0204,-1.65 0.2445,-2.203936 0.49804,-1.230968 0.25354,0.972967 0.23687,2.322967 -0.0371,3 C 248.38201,47.946064 248.17457,47.15 248.19495,45.5 Z M 299.15789,45 c 0,-1.375 0.22698,-1.9375 0.50439,-1.25 0.27741,0.6875 0.27741,1.8125 0,2.5 -0.27741,0.6875 -0.50439,0.125 -0.50439,-1.25 z m -49,-3 c 0,-1.375 0.22698,-1.9375 0.50439,-1.25 0.27741,0.6875 0.27741,1.8125 0,2.5 -0.27741,0.6875 -0.50439,0.125 -0.50439,-1.25 z m 47,0 c 0,-1.375 0.22698,-1.9375 0.50439,-1.25 0.27741,0.6875 0.27741,1.8125 0,2.5 -0.27741,0.6875 -0.50439,0.125 -0.50439,-1.25 z"
         id="path253" />
      <path
         style="fill:#2a86e1"
         d="m 282.07895,480.41667 c 0.048,-1.16495 0.28494,-1.4019 0.60416,-0.60417 0.28887,0.72187 0.25335,1.58438 -0.0789,1.91667 -0.33229,0.33229 -0.56864,-0.25834 -0.52522,-1.3125 z m -8.26645,-5.09978 c 0.72187,-0.28887 1.58438,-0.25335 1.91667,0.0789 0.33229,0.33229 -0.25834,0.56864 -1.3125,0.52522 -1.16495,-0.048 -1.4019,-0.28494 -0.60417,-0.60416 z m 0,-9 c 0.72187,-0.28887 1.58438,-0.25335 1.91667,0.0789 0.33229,0.33229 -0.25834,0.56864 -1.3125,0.52522 -1.16495,-0.048 -1.4019,-0.28494 -0.60417,-0.60416 z m 103,-20 c 0.72187,-0.28887 1.58438,-0.25335 1.91667,0.0789 0.33229,0.33229 -0.25834,0.56864 -1.3125,0.52522 -1.16495,-0.048 -1.4019,-0.28494 -0.60417,-0.60416 z M 174.5,439 l -6,-0.66378 6.25,-0.16811 c 3.61207,-0.0972 6.25,0.25396 6.25,0.83189 0,0.55 -0.1125,0.92435 -0.25,0.83189 -0.1375,-0.0925 -2.95,-0.46681 -6.25,-0.83189 z m -1.75,-3.73221 c 2.3375,-0.21053 6.1625,-0.21053 8.5,0 2.3375,0.21054 0.425,0.3828 -4.25,0.3828 -4.675,0 -6.5875,-0.17226 -4.25,-0.3828 z m 278.89918,-44.94166 c 0.63206,-0.45437 1.30706,-1.91588 1.5,-3.2478 0.19295,-1.33192 1.02582,-2.60368 1.85082,-2.82613 1.00247,-0.27031 1.11883,-0.13044 0.35082,0.42167 -0.63206,0.45437 -1.30706,1.91588 -1.5,3.2478 -0.19295,1.33192 -1.02582,2.60368 -1.85082,2.82613 -1.00247,0.27031 -1.11883,0.13044 -0.35082,-0.42167 z m -11.98251,-5.9928 c -0.36667,-0.36666 -0.65978,-1.15416 -0.65136,-1.75 0.01,-0.69041 0.28879,-0.65325 0.76933,0.10246 0.41472,0.65218 2.99532,1.35857 5.73469,1.56975 l 4.98067,0.38396 -5.08333,0.18025 c -2.79584,0.0991 -5.38334,-0.11975 -5.75,-0.48642 z m 13.53203,-10 c -0.13232,-5.43817 -0.61633,-8.33518 -1.4487,-8.67105 -0.97906,-0.39506 -0.97226,-0.5215 0.0314,-0.58333 1.94617,-0.11991 2.34518,1.91438 1.96428,10.01463 L 453.39739,382.5 Z M 94,369.62244 c 0,-0.20765 0.7875,-0.99515 1.75,-1.75 1.586056,-1.24387 1.621426,-1.2085 0.377555,0.37756 C 94.821186,369.91575 94,370.44548 94,369.62244 Z m 5.8125,-3.30555 c 0.72187,-0.28887 1.58437,-0.25335 1.91667,0.0789 0.33229,0.33229 -0.25834,0.56864 -1.3125,0.52522 -1.164946,-0.048 -1.401903,-0.28494 -0.60417,-0.60416 z m 372,-76 c 0.72187,-0.28887 1.58438,-0.25335 1.91667,0.0789 0.33229,0.33229 -0.25834,0.56864 -1.3125,0.52522 -1.16495,-0.048 -1.4019,-0.28494 -0.60417,-0.60416 z M 190,271.9963 c -39.875,-4.27045 -73.625,-7.92912 -75,-8.13038 -1.99693,-0.29229 -2.56316,-1.0213 -2.81387,-3.6228 -0.21509,-2.23182 0.1738,-3.44401 1.2356,-3.85146 1.11671,-0.42852 149.91655,14.37996 151.26408,15.05372 0.50514,0.25257 -1.03456,8.5381 -1.56748,8.435 C 262.77825,279.81459 229.875,276.26675 190,271.9963 Z m -116.25,6.34142 c 0.6875,-0.27741 1.8125,-0.27741 2.5,0 0.6875,0.27741 0.125,0.50439 -1.25,0.50439 -1.375,0 -1.9375,-0.22698 -1.25,-0.50439 z M 100.36523,179.5 c 0.003,-5.5 0.17053,-7.62242 0.37317,-4.71648 0.20265,2.90594 0.20052,7.40594 -0.005,10 -0.20525,2.59406 -0.37104,0.21648 -0.36844,-5.28352 z m 18.44727,7.81689 c 0.72187,-0.28887 1.58437,-0.25335 1.91667,0.0789 0.33229,0.33229 -0.25834,0.56864 -1.3125,0.52522 -1.16495,-0.048 -1.4019,-0.28494 -0.60417,-0.60416 z M 124.15789,180 c 0,-1.375 0.22698,-1.9375 0.50439,-1.25 0.27741,0.6875 0.27741,1.8125 0,2.5 -0.27741,0.6875 -0.50439,0.125 -0.50439,-1.25 z m -12.96294,-2.5 c 0.0204,-1.65 0.2445,-2.20394 0.49804,-1.23097 0.25354,0.97297 0.23687,2.32297 -0.037,3 C 111.38206,179.94606 111.17462,179.15 111.195,177.5 Z M 444,178.62244 c 0,-0.20765 0.7875,-0.99515 1.75,-1.75 1.58606,-1.24387 1.62143,-1.2085 0.37756,0.37756 C 444.82119,178.91575 444,179.44548 444,178.62244 Z M 124.15789,175 c 0,-1.375 0.22698,-1.9375 0.50439,-1.25 0.27741,0.6875 0.27741,1.8125 0,2.5 -0.27741,0.6875 -0.50439,0.125 -0.50439,-1.25 z M 94,172.05902 c 0,-0.51754 0.444846,-1.21592 0.988546,-1.55194 0.56686,-0.35034 0.734507,0.0511 0.393011,0.94098 C 94.716766,173.18048 94,173.49745 94,172.05902 Z m 4,-3.43658 c 0,-0.20765 0.7875,-0.99515 1.75,-1.75 1.58606,-1.24387 1.62143,-1.2085 0.37756,0.37756 C 98.821186,168.91575 98,169.44548 98,168.62244 Z M 265.36523,79.5 c 0.003,-5.5 0.17053,-7.622415 0.37317,-4.716478 0.20265,2.905937 0.20052,7.405937 -0.005,10 C 265.52842,87.377585 265.36263,85 265.36523,79.5 Z m 2.63022,-2.703662 c -0.2725,-6.987014 -0.14302,-12.349583 0.28773,-11.916821 0.43075,0.432762 0.6537,6.14941 0.49545,12.703662 L 268.4909,89.5 Z M 285,81.622445 c 0,-0.207656 0.7875,-0.995156 1.75,-1.75 1.58606,-1.243871 1.62143,-1.208501 0.37756,0.377555 C 285.82119,81.915748 285,82.445479 285,81.622445 Z"
         id="path251" />
      <path
         style="fill:#686868"
         d="m 250.07895,508.41667 c 0.048,-1.16495 0.28494,-1.4019 0.60416,-0.60417 0.28887,0.72187 0.25335,1.58438 -0.0789,1.91667 -0.3323,0.33229 -0.56864,-0.25834 -0.52522,-1.3125 z m 47,0 c 0.048,-1.16495 0.28494,-1.4019 0.60416,-0.60417 0.28887,0.72187 0.25335,1.58438 -0.0789,1.91667 -0.33229,0.33229 -0.56864,-0.25834 -0.52522,-1.3125 z M 115,451.62244 c 0,-0.20765 0.7875,-0.99515 1.75,-1.75 1.58606,-1.24387 1.62143,-1.2085 0.37756,0.37756 C 115.82119,451.91575 115,452.44548 115,451.62244 Z M 451.87244,436.25 c -1.24387,-1.58606 -1.2085,-1.62143 0.37756,-0.37756 1.66575,1.30637 2.19548,2.12756 1.37244,2.12756 -0.20765,0 -0.99515,-0.7875 -1.75,-1.75 z m -5,-2 c -1.24387,-1.58606 -1.2085,-1.62143 0.37756,-0.37756 1.66575,1.30637 2.19548,2.12756 1.37244,2.12756 -0.20765,0 -0.99515,-0.7875 -1.75,-1.75 z M 41.8125,300.31689 c 0.721875,-0.28887 1.584375,-0.25335 1.916667,0.0789 0.332291,0.33229 -0.258334,0.56864 -1.3125,0.52522 -1.164943,-0.048 -1.4019,-0.28494 -0.604167,-0.60416 z m 463,0 c 0.72187,-0.28887 1.58438,-0.25335 1.91667,0.0789 0.33229,0.33229 -0.25834,0.56864 -1.3125,0.52522 -1.16495,-0.048 -1.4019,-0.28494 -0.60417,-0.60416 z M 51.157895,277 c 0,-1.375 0.226973,-1.9375 0.504386,-1.25 0.277412,0.6875 0.277412,1.8125 0,2.5 -0.277413,0.6875 -0.504386,0.125 -0.504386,-1.25 z m 444.999995,0 c 0,-1.375 0.22698,-1.9375 0.50439,-1.25 0.27741,0.6875 0.27741,1.8125 0,2.5 -0.27741,0.6875 -0.50439,0.125 -0.50439,-1.25 z M 41.8125,253.31689 c 0.721875,-0.28887 1.584375,-0.25335 1.916667,0.0789 0.332291,0.33229 -0.258334,0.56864 -1.3125,0.52522 -1.164943,-0.048 -1.4019,-0.28494 -0.604167,-0.60416 z m 463,0 c 0.72187,-0.28887 1.58438,-0.25335 1.91667,0.0789 0.33229,0.33229 -0.25834,0.56864 -1.3125,0.52522 -1.16495,-0.048 -1.4019,-0.28494 -0.60417,-0.60416 z M 446,120.62244 c 0,-0.20765 0.7875,-0.99515 1.75,-1.75 1.58606,-1.24387 1.62143,-1.2085 0.37756,0.37756 C 446.82119,120.91575 446,121.44548 446,120.62244 Z m 5,-2 c 0,-0.20765 0.7875,-0.99515 1.75,-1.75 1.58606,-1.24387 1.62143,-1.2085 0.37756,0.37756 C 451.82119,118.91575 451,119.44548 451,118.62244 Z M 250.07895,45.416667 c 0.048,-1.164943 0.28494,-1.4019 0.60416,-0.604167 0.28887,0.721875 0.25335,1.584375 -0.0789,1.916667 -0.3323,0.332291 -0.56864,-0.258334 -0.52522,-1.3125 z m 47,0 c 0.048,-1.164943 0.28494,-1.4019 0.60416,-0.604167 0.28887,0.721875 0.25335,1.584375 -0.0789,1.916667 -0.33229,0.332291 -0.56864,-0.258334 -0.52522,-1.3125 z"
         id="path249" />
      <path
         style="fill:#1919fc"
         d="m 269.09886,486.39855 c -3.65956,-4.65238 -3.85547,-11.98809 -0.4958,-18.56528 2.44291,-4.78247 9.80845,-4.6699 12.40921,0.18965 1.41176,2.63791 -0.36496,2.62439 -3.01227,-0.0229 -1.1,-1.1 -2.64234,-2 -3.42742,-2 -2.05727,0 -5.57258,4.85201 -5.57258,7.69156 0,2.30295 0.10911,2.34543 2.22251,0.86514 C 276.36331,470.95595 282,474.3462 282,481.03896 282,486.08889 279.28402,489 274.57258,489 c -2.50049,0 -3.98083,-0.70355 -5.47372,-2.60145 z m 8.94536,-0.95183 c 1.92342,-2.31759 1.59894,-7.50326 -0.56868,-9.08827 -2.33652,-1.7085 -3.61236,-1.71011 -5.94083,-0.007 -2.09831,1.53432 -2.37754,6.92857 -0.47718,9.21836 1.56895,1.89047 5.37137,1.82374 6.98669,-0.1226 z M 375,460.31136 c -2.39151,-0.9125 -5,-3.50343 -5,-4.96635 0,-2.02412 2.3499,-1.61563 3.76793,0.65499 0.69007,1.10499 2.33202,2 3.66912,2 5.65005,0 7.72493,-7.53731 2.93826,-10.67366 -2.47346,-1.62067 -2.79547,-1.62175 -5.58853,-0.0188 -1.63012,0.93556 -3.31357,1.48487 -3.74102,1.22069 -0.42744,-0.26417 -0.25833,-3.07861 0.3758,-6.2543 l 1.15297,-5.77398 6.21274,-0.29772 c 4.98009,-0.23865 6.21273,-10e-4 6.21273,1.19774 0,1.099 -1.39183,1.57559 -5.25,1.79772 -4.86981,0.28037 -5.27254,0.49757 -5.56132,2.99934 -0.29575,2.56224 -0.13694,2.66878 3.17654,2.13108 7.09557,-1.15145 11.33684,7.53627 6.38478,13.07843 -2.34055,2.61945 -6.16783,3.89001 -8.75,2.90477 z m -202,-2.15243 c 0,-3.36712 2.8289,-11.30199 5.43134,-15.23454 C 179.8441,440.78956 181,438.80823 181,438.52144 181,438.23465 178.3,438 175,438 c -3.33333,0 -6,-0.44444 -6,-1 0,-0.58333 3.33333,-1 8,-1 4.4,0 8,0.2981 8,0.66245 0,0.36435 -1.33705,2.74606 -2.97122,5.29269 C 178.65626,447.21077 176,454.11517 176,457.62573 176,459.06953 175.41215,460 174.5,460 c -0.825,0 -1.5,-0.82848 -1.5,-1.84107 z M 98,391.32767 c -5.311906,-2.08456 -6.890329,-8.86741 -2.75,-11.81738 2.079646,-1.48174 2.117503,-1.67908 0.5,-2.6064 -2.304019,-1.32089 -2.258074,-6.13411 0.07874,-8.2489 2.516106,-2.27705 7.72592,-2.10033 10.17126,0.34501 2.40063,2.40063 2.50028,3.84074 0.46665,6.74415 -1.41099,2.01447 -1.36278,2.35972 0.60417,4.32667 1.64737,1.64737 1.99386,2.85579 1.51103,5.26995 -0.34457,1.72285 -1.18498,3.69093 -1.86756,4.37352 -1.48628,1.48627 -6.61742,2.43626 -8.71429,1.61338 z m 5.77749,-2.88437 c 4.74059,-3.32044 0.90844,-10.76789 -4.557772,-8.85764 -3.739046,1.30667 -4.359719,6.50244 -1.053406,8.81828 2.798508,1.96015 2.868168,1.96064 5.611178,0.0394 z m 0.61527,-13.6933 c 1.60856,-2.56604 -0.43725,-5.25 -4.00175,-5.25 -2.445356,0 -2.941892,0.44573 -3.221086,2.89149 -0.521852,4.57147 4.755396,6.29467 7.222836,2.35851 z M 450,387 c 0,-2.93333 -0.11111,-3 -5,-3 -3.33155,0 -5.00111,-0.41711 -5.00334,-1.25 -0.005,-1.95895 10.35683,-16.70924 11.75334,-16.73075 0.89744,-0.0138 1.25,2.23715 1.25,7.98075 0,7.33333 0.16667,8 2,8 1.1,0 2,0.39752 2,0.88337 0,0.48585 -0.9,1.11872 -2,1.40638 -1.35148,0.35342 -2,1.36401 -2,3.11663 0,1.63877 -0.55223,2.59362 -1.5,2.59362 -1,0 -1.5,-1 -1.5,-3 z m 0,-10.73665 v -5.73665 l -3.5,5.1972 c -1.925,2.85846 -3.5,5.43995 -3.5,5.73665 0,0.2967 1.575,0.53945 3.5,0.53945 H 450 Z M 69.000824,287.27392 c -1.278417,-1.62525 -1.704475,-2.8727 -1.055076,-3.08917 0.599093,-0.1997 1.90546,0.64488 2.903038,1.87684 C 74.357152,290.39423 80,286.52081 80,279.77991 80,277.8186 79.887487,277.79185 78.171259,279.34501 73.843784,283.26132 67,279.26375 67,272.81969 67,269.20645 70.980028,265 74.398782,265 c 6.081845,0 9.834555,7.61221 8.158118,16.54839 -1.47674,7.8717 -9.276575,11.16603 -13.556076,5.72553 z M 78.966582,275.75 c 1.377983,-2.47125 1.377886,-3.02804 -9.56e-4,-5.49292 -1.885162,-3.37002 -4.491977,-3.9957 -7.04003,-1.68975 -3.834263,3.46996 -1.346212,10.9261 3.415632,10.23589 1.150565,-0.16677 2.781974,-1.54072 3.625354,-3.05322 z M 467.0439,287.32868 c -1.57131,-1.9976 -1.8103,-2.94337 -0.94758,-3.75 0.83037,-0.77639 1.28379,-0.72338 1.61797,0.18918 1.48199,4.04699 5.96057,5.41443 8.71428,2.66071 C 479.68327,283.17388 477.7628,278 473.3,278 c -3.21613,0 -2.86588,-1.34793 0.7,-2.6939 2.25369,-0.85067 3,-1.76716 3,-3.68405 0,-4.85827 -6.63079,-5.63252 -8.41513,-0.98261 -0.45811,1.19382 -0.96382,1.38161 -1.71029,0.63514 -1.69684,-1.69684 0.69352,-5.02081 4.15774,-5.78168 5.8344,-1.28145 10.63277,4.31691 7.62912,8.90105 -1.37117,2.09268 -1.33424,2.44173 0.41708,3.94125 1.05681,0.90487 1.92148,2.92119 1.92148,4.4807 0,6.70832 -9.74933,9.86082 -13.9561,4.51278 z M 101,180.06028 v -10.10639 l -2.531208,1.65852 c -1.392165,0.91218 -2.82335,1.36637 -3.180412,1.0093 C 94.573958,171.90729 101.70453,165 103.15647,165 c 1.469,0 0.58061,24.25788 -0.90647,24.75163 -0.94492,0.31374 -1.25,-2.05156 -1.25,-9.69135 z m 14.02544,7.96516 c -2.63503,-2.63503 -3.34665,-5.90794 -2.8319,-13.02441 C 112.70641,167.91071 114.83289,165 119.5,165 c 5.72116,0 9.08419,6.54782 7.91549,15.41151 -1.09398,8.29704 -7.66743,12.33655 -12.39005,7.61393 z m 7.36385,-1.55759 c 3.01063,-3.01063 3.29731,-14.7307 0.4444,-18.16824 -1.46268,-1.76243 -4.35349,-1.63695 -6.26226,0.27182 -2.26205,2.26205 -2.20122,15.07518 0.0836,17.59983 2.01888,2.23084 3.71245,2.31844 5.7343,0.29659 z M 436,188.36047 c 0,-0.90175 2.925,-4.52168 6.5,-8.0443 7.00648,-6.90382 8.22485,-10.32269 4.40686,-12.36602 -2.78559,-1.4908 -6.62028,-0.42845 -7.4076,2.05217 -0.85395,2.69058 -3.48507,2.65944 -2.78101,-0.0329 1.39195,-5.32283 9.73872,-6.74651 13.26569,-2.26269 3.00982,3.82636 1.97292,6.76941 -4.68351,13.29328 l -5.61176,5.5 6.15567,0.29772 c 4.57847,0.22143 6.15566,0.66981 6.15566,1.75 0,1.14868 -1.67238,1.45228 -8,1.45228 -6.74704,0 -8,-0.25678 -8,-1.63953 z M 373,111.5 c 0,-5.225 -0.24083,-9.5 -0.53518,-9.5 -0.29435,0 -1.64435,0.72675 -3,1.61501 -3.79866,2.48897 -2.97881,-0.11023 1.28518,-4.074494 2.0625,-1.917521 4.0875,-3.498577 4.5,-3.513458 0.4125,-0.01488 0.75,5.597942 0.75,12.472942 0,10.44444 -0.24667,12.5 -1.5,12.5 -1.22807,0 -1.5,-1.72222 -1.5,-9.5 z m -205,-1 c 0,-5.225 -0.24083,-9.5 -0.53518,-9.5 -0.29435,0 -1.64435,0.72675 -3,1.61501 -1.95783,1.28281 -2.46111,1.33424 -2.44679,0.25 C 162.03452,101.6161 169.11304,95 170.43274,95 170.74473,95 171,100.625 171,107.5 c 0,10.44444 -0.24667,12.5 -1.5,12.5 -1.22807,0 -1.5,-1.72222 -1.5,-9.5 z m 17,-0.57258 V 99.85484 l -2.72608,2.14434 c -4.32993,3.40592 -4.00503,0.35473 0.37412,-3.513438 2.11858,-1.871369 4.18946,-3.421221 4.60196,-3.444115 0.4125,-0.0229 0.75,5.583373 0.75,12.458373 0,10.44444 -0.24667,12.5 -1.5,12.5 -1.23405,0 -1.5,-1.78584 -1.5,-10.07258 z M 266,79.943464 V 69.886928 l -2.96923,1.753969 c -1.63308,0.964683 -3.28307,1.440136 -3.66664,1.056563 -0.68401,-0.684012 6.4131,-7.574092 7.88587,-7.655833 C 267.6625,65.018732 268,70.625 268,77.5 c 0,7.666667 -0.38667,12.5 -1,12.5 -0.60037,0 -1,-4.018845 -1,-10.056536 z m 10,9.490795 c 0,-1.770752 2.87051,-5.538868 7.61343,-9.994161 5.61878,-5.278026 6.88855,-8.94868 3.94161,-11.394417 C 285.41383,66.268637 281.63947,67.182093 280.51287,69.75 279.40157,72.283031 277,72.795767 277,70.5 277,67.880387 280.81127,65 284.27749,65 289.06897,65 292,67.430723 292,71.40432 c 0,2.713667 -1.096,4.370077 -6.24836,9.443296 L 279.50328,87 h 6.24836 C 290.63907,87 292,87.326709 292,88.5 c 0,1.208333 -1.55556,1.5 -8,1.5 -4.4,0 -8,-0.254584 -8,-0.565741 z"
         id="path247" />
      <path
         style="fill:#54d201"
         d="m 283.31567,274.25008 c -0.64232,-2.05218 -1.08861,-3.78891 -0.99176,-3.85941 0.0968,-0.0705 46.18426,-12.62093 102.41646,-27.88986 C 491.84923,213.41718 490,213.83005 490,219 c 0,0.96531 -0.56675,2.22547 -1.25944,2.80035 -0.69269,0.57489 -46.25519,13.25424 -101.25,28.17633 -54.99481,14.9221 -100.66927,27.32764 -101.49879,27.56786 -1.03287,0.29911 -1.87633,-0.73925 -2.6761,-3.29446 z"
         id="path245" />
      <path
         style="fill:#e0261f"
         d="m 321.20446,506.75 c -4.48856,-18.4674 -46.39068,-218.89712 -45.87148,-219.41631 0.36686,-0.36686 0.95642,-0.37762 1.31013,-0.0239 0.48815,0.48815 30.36298,139.29942 46.25923,214.94022 1.40687,6.69443 1.54476,8.75 0.58697,8.75 -0.68853,0 -1.71672,-1.9125 -2.28485,-4.25 z"
         id="path243" />
      <path
         style="fill:#060607"
         d="M 0,276.5 V 0 H 274.5 549 V 276.5 553 H 274.5 0 Z m 548,0 V 1 H 274.5 1 V 276.5 552 H 274.5 548 Z M 272.6875,528.35417 C 272.30937,527.97604 272,521.44167 272,513.83333 272,500.60422 272.08856,500 274.02746,500 c 1.95426,0 2.01744,0.51148 1.75,14.16796 -0.25874,13.21211 -0.93935,16.33682 -3.08996,14.18621 z m -24.0554,-17.37598 c 1.02823,-11.16844 2.40322,-13.93386 1.72939,-3.47819 -0.31901,4.95 -0.99353,9.44019 -1.49894,9.97819 -0.56004,0.59615 -0.65004,-1.94244 -0.23045,-6.5 z m 50.08876,6.33834 c -0.74981,-1.27706 -2.00095,-18.89147 -1.29301,-18.20388 0.34693,0.33696 1.07959,4.56246 1.62813,9.39 0.92827,8.16941 0.82842,10.79561 -0.33512,8.81388 z M 223.02567,513.45 c 0.054,-1.99762 3.81982,-17.62882 4.38271,-18.19171 0.91566,-0.91567 0.72221,0.88619 -1.00758,9.38475 -0.87956,4.32133 -2.00456,8.28446 -2.5,8.80696 -0.56893,0.6 -0.89134,0.6 -0.87513,0 z m 100.55728,-0.31579 c -0.43077,-0.697 -0.51316,-1.53733 -0.18309,-1.86741 0.89497,-0.89496 1.87077,0.4213 1.38739,1.87145 -0.33872,1.01617 -0.57427,1.01538 -1.2043,-0.004 z M 199,506.59461 C 199,504.40293 204.23467,489 204.97951,489 c 0.97287,0 -3.67351,15.98799 -5.07126,17.45 C 199.40871,506.9725 199,507.03758 199,506.59461 Z m 148.70629,-0.27808 C 346.35916,504.08977 342.27591,489 343.02049,489 c 0.96034,0 6.37111,16.94174 5.64323,17.66961 -0.2549,0.2549 -0.68574,0.096 -0.95743,-0.35308 z M 175,497.59957 c 0,-1.26084 8.12814,-17.80476 8.54352,-17.38938 C 184.22661,480.89328 176.76328,498 175.78216,498 175.35197,498 175,497.81981 175,497.59957 Z m 192.69545,-8.24385 c -2.05712,-4.75436 -3.51466,-8.86985 -3.23897,-9.14553 C 364.87186,479.79481 373,496.33873 373,497.59957 373,497.81981 372.64803,498 372.21784,498 c -0.43019,0 -2.46526,-3.88993 -4.52239,-8.64428 z M 147,494.33743 c 0,-0.81103 11.39914,-21.15869 13.20367,-23.56877 0.85658,-1.14402 1.76258,-1.43714 2.67075,-0.86409 1.89251,1.19417 -11.53024,25.01035 -14.12442,25.06116 -0.9625,0.0188 -1.75,-0.26389 -1.75,-0.6283 z m 243.62558,-11.48579 c -5.41923,-9.52274 -6.58348,-12.2634 -5.5,-12.94707 0.90817,-0.57305 1.81417,-0.27993 2.67075,0.86409 C 389.60086,473.17874 401,493.5264 401,494.33743 c 0,0.36441 -0.7875,0.64715 -1.75,0.6283 -1.17591,-0.023 -4.00517,-3.9971 -8.62442,-12.11409 z m -258.5939,-10.5804 C 131.9903,470.66615 141.96499,457 143.17791,457 c 0.82934,0 -2.21356,4.63205 -8.89623,13.54225 -1.22008,1.62676 -2.23258,2.40481 -2.25,1.72899 z m 281.41101,-1.96349 c -1.11035,-1.54426 -3.72752,-5.17025 -5.81593,-8.05775 -2.0884,-2.8875 -3.36406,-5.25 -2.8348,-5.25 1.29414,0 11.39856,13.92844 10.99113,15.15073 -0.17687,0.53062 -1.23006,-0.29872 -2.3404,-1.84298 z M 112.02686,456.25 c 0.0148,-0.4125 2.96734,-3.9 6.56126,-7.75 7.79963,-8.35539 8.05946,-6.64126 0.32927,2.17226 -5.10477,5.82017 -6.95279,7.3161 -6.89053,5.57774 z m 317.05575,-5.57774 c -7.73019,-8.81352 -7.47036,-10.52765 0.32927,-2.17226 3.59392,3.85 6.54649,7.3375 6.56126,7.75 0.0623,1.73836 -1.78576,0.24243 -6.89053,-5.57774 z M 94.075571,438.25 c 0.11357,-1.12713 12.202729,-11.52534 13.926599,-11.97864 0.82381,-0.21663 -1.65217,2.54661 -5.50217,6.14052 -6.630914,6.18986 -8.597169,7.55247 -8.424429,5.83812 z M 445.5,432.51252 c -3.85,-3.53857 -6.44161,-6.45148 -5.75913,-6.47314 0.68248,-0.0217 4.28248,2.87065 8,6.42736 8.77884,8.39909 6.88962,8.43769 -2.24087,0.0458 z M 78,419.23775 c 0,-0.4739 1.2375,-1.75089 2.75,-2.83776 1.5125,-1.08687 5.1125,-3.68482 8,-5.77323 2.8875,-2.0884 5.25,-3.34827 5.25,-2.79971 0,0.54857 -3.011936,3.17439 -6.69319,5.83517 C 78.815903,419.79937 78,420.28816 78,419.23775 Z m 383.69853,-4.88132 C 457.46434,411.28752 454,408.35209 454,407.83326 c 0,-0.83434 3.25302,1.28829 13.54042,8.83524 1.62576,1.19267 2.70858,2.41583 2.40628,2.71813 -0.3023,0.3023 -4.01398,-1.96129 -8.24817,-5.0302 z M 56.034272,402.25 c 0.05081,-2.59418 23.866986,-16.01693 25.061158,-14.12442 0.573055,0.90817 0.279929,1.81417 -0.864088,2.67075 C 77.821257,392.60086 57.473603,404 56.662574,404 c -0.364416,0 -0.647151,-0.7875 -0.628302,-1.75 z M 479,397.42973 c -13.26577,-7.56677 -13.1883,-7.50701 -12.07245,-9.31251 1.16715,-1.88848 24.98773,11.55703 25.03818,14.13278 0.0188,0.9625 -0.30323,1.74759 -0.71573,1.74465 -0.4125,-0.003 -5.925,-2.95716 -12.25,-6.56492 z M 53,375.21784 c 0,-0.98112 17.106719,-8.44445 17.789814,-7.76136 C 71.205193,367.87186 54.661268,376 53.400432,376 53.180194,376 53,375.64803 53,375.21784 Z m 432.10185,-3.31243 c -4.61899,-2.16834 -8.17141,-4.16918 -7.89428,-4.44631 0.68485,-0.68485 17.79243,6.77524 17.79243,7.75874 0,1.21203 -0.90613,0.90879 -9.89815,-3.31243 z M 44.55,351.09175 C 46.012012,349.694 62,345.04762 62,346.02049 c 0,0.47216 -3.777576,2.01071 -8.394614,3.419 -9.125067,2.78331 -10.501035,3.03437 -9.055386,1.65226 z m 449.2,-1.74616 c -4.2625,-1.34794 -7.75,-2.84067 -7.75,-3.31719 0,-0.97833 15.98077,3.6587 17.45,5.06335 1.49079,1.42527 -1.20675,0.93967 -9.7,-1.74616 z M 37.55,327.0992 C 38.400928,326.29234 52.635967,323 55.273631,323 c 2.826258,0 -0.948271,1.36976 -8.448587,3.06595 -9.6294,2.17768 -10.595485,2.28531 -9.275044,1.03325 z m 463.13848,-1.08478 C 493.61804,324.38145 489.96916,323 492.72637,323 c 2.63766,0 16.8727,3.29234 17.72363,4.0992 1.31589,1.24774 -0.56929,1.03824 -9.76152,-1.08478 z M 33.52181,302.13745 c 0.538005,-0.50541 5.02819,-1.17993 9.97819,-1.49894 10.455674,-0.67383 7.690253,0.70116 -3.47819,1.72939 -4.55756,0.41959 -7.096155,0.32959 -6.5,-0.23045 z m 469.57316,-0.25554 c -4.07276,-0.47225 -7.67276,-1.13912 -8,-1.48195 -0.94482,-0.98985 18.29929,0.70097 19.35503,1.70057 1.09903,1.04058 -0.81273,1.00377 -11.35503,-0.21862 z M 270.31471,285.53634 c -5.94155,-2.58415 -7.9001,-10.88662 -3.5062,-14.86304 3.55303,-3.21546 7.16975,-3.85145 11.06633,-1.94601 7.17146,3.50686 7.58177,12.19405 0.77207,16.34637 -3.69982,2.25601 -4.1513,2.28108 -8.3322,0.46268 z M 22.5,278 c -1.504925,-2.43502 1.236924,-3 14.559017,-3 C 50.333333,275 51,275.09564 51,277 c 0,1.90436 -0.666667,2 -13.940983,2 C 28.843718,279 22.864202,278.58929 22.5,278 Z M 497,277 c 0,-1.99006 0.44972,-2.04616 14.25,-1.77746 11.87669,0.23125 14.25,0.52728 14.25,1.77746 0,1.25018 -2.37331,1.54621 -14.25,1.77746 C 497.44972,279.04616 497,278.99006 497,277 Z M 39.5,253.25976 c -2.75,-0.20886 -5.440185,-0.81544 -5.97819,-1.34795 -1.079126,-1.06809 12.183072,-0.13245 16.47819,1.16253 2.038358,0.61457 1.761372,0.73634 -1.5,0.65946 -2.2,-0.0519 -6.25,-0.26518 -9,-0.47404 z M 498,253.07974 c 5.83661,-1.41235 17.61319,-2.29207 16.5,-1.23257 -0.55,0.52348 -5.275,1.20551 -10.5,1.51564 -6.11355,0.36286 -8.25236,0.26196 -6,-0.28307 z M 46,229.39409 c -7.668972,-1.65778 -9.465741,-2.26168 -8.777319,-2.9501 0.582263,-0.58227 17.61928,3.06464 18.518712,3.96407 0.900263,0.90026 -2.54506,0.54164 -9.741393,-1.01397 z m 446.25829,1.01429 c 0.56289,-0.56289 16.19409,-4.32872 18.19171,-4.38271 0.6,-0.0162 0.6,0.3062 0,0.87513 -0.5225,0.49544 -4.48563,1.62044 -8.80696,2.5 -8.49856,1.72979 -10.30042,1.92324 -9.38475,1.00758 z M 54.364916,206.56978 c -9.564504,-3.0397 -10.743581,-3.52445 -10.111125,-4.1569 C 45.072036,201.59463 62,206.98187 62,208.06051 c 0,0.51672 -0.1125,0.9029 -0.25,0.85818 -0.1375,-0.0447 -3.460788,-1.10173 -7.385084,-2.34891 z M 486,207.97951 c 0,-0.47216 3.77758,-2.01071 8.39461,-3.419 9.12507,-2.78331 10.50104,-3.03437 9.05539,-1.65226 -1.46201,1.39775 -17.45,6.04413 -17.45,5.07126 z M 62,183.47189 c -4.125,-1.87454 -7.95,-3.58597 -8.5,-3.80317 -0.55,-0.2172 -0.727989,-0.69103 -0.395532,-1.05295 C 53.733254,177.93126 71,185.49429 71,186.45422 c 0,0.94705 -1.304429,0.5148 -9,-2.98233 z m 415,2.98233 c 0,-0.8496 17.22536,-8.5622 17.8122,-7.97535 0.76305,0.76305 0.45955,0.93565 -8.61064,4.89691 C 477.52093,187.16692 477,187.3412 477,186.45422 Z M 67.785455,160.21626 c -7.827453,-4.48769 -11.726309,-7.29694 -11.75,-8.46626 -0.04748,-2.34333 0.405041,-2.25287 6.883688,1.37597 16.253777,9.10413 18.991002,10.94461 18.434402,12.39509 -0.312138,0.81342 -0.856878,1.46376 -1.210534,1.4452 -0.353656,-0.0186 -5.914556,-3.05606 -12.357556,-6.75 z m 398.861005,5.3048 c -0.55661,-1.45048 2.18062,-3.29096 18.4344,-12.39509 6.4787,-3.62887 6.93076,-3.71922 6.88487,-1.37597 -0.023,1.17418 -3.93793,3.97103 -11.89795,8.5 -6.52503,3.7125 -12.08646,6.75 -12.35874,6.75 -0.27228,0 -0.75045,-0.66552 -1.06258,-1.47894 z M 86,141.43399 c -4.125,-3.01597 -7.667762,-5.97571 -7.872805,-6.5772 -0.464251,-1.36188 0.551068,-0.75565 9.179615,5.48099 3.681254,2.66078 6.69319,5.24828 6.69319,5.75 0,1.25062 0.369835,1.46577 -8,-4.65379 z m 368,4.73275 c 0,-1.235 15.23055,-12.26952 15.9467,-11.55337 0.3023,0.3023 -0.78052,1.52546 -2.40628,2.71813 C 457.25302,144.87845 454,147.00108 454,146.16674 Z M 100.68098,122.25 c -6.142694,-5.41395 -7.679661,-7.28577 -5.93098,-7.22314 1.29811,0.0465 14.80818,12.89238 13.60248,12.93376 -0.63113,0.0217 -4.0833,-2.54812 -7.6715,-5.71062 z M 445.5,121.48748 c 9.13049,-8.39191 11.01971,-8.35331 2.24087,0.0458 -3.71752,3.55671 -7.31752,6.44902 -8,6.42736 -0.68248,-0.0217 1.90913,-2.93457 5.75913,-6.47314 z M 118,105 c -7.24239,-8.169031 -7.56662,-10.658246 -0.38874,-2.98451 5.59485,5.98135 7.78244,8.92415 7.12365,9.58293 -0.258,0.258 -3.28871,-2.71129 -6.73491,-6.59842 z m 305.27136,6.00217 c 0.4533,-1.72387 10.85151,-13.813029 11.97864,-13.926599 1.71435,-0.17274 0.35174,1.793515 -5.83812,8.424429 -3.59391,3.85 -6.35715,6.32598 -6.14052,5.50217 z M 137.14135,90.004078 c -2.82774,-3.875612 -5.13134,-7.599506 -5.11911,-8.275322 0.0245,-1.351926 2.03077,1.038716 7.59325,9.047826 5.53178,7.964918 3.41974,7.305474 -2.47414,-0.772504 z m 268.17816,5.605664 c 1.05853,-2.758469 10.14478,-14.716865 10.46112,-13.767849 0.17823,0.534681 -2.00479,4.163988 -4.85116,8.065127 -5.00176,6.855254 -6.72406,8.606037 -5.60996,5.702722 z M 157.14703,78.210534 C 150.48435,66.731928 147,60.36508 147,59.669143 c 0,-0.368029 0.7875,-0.65372 1.75,-0.634871 1.17418,0.023 3.97103,3.937923 8.5,11.89795 3.7125,6.525023 6.75,12.086456 6.75,12.358739 0,0.272284 -0.66552,0.750446 -1.47894,1.062584 -1.03617,0.397616 -2.64506,-1.441497 -5.37403,-6.143011 z m 227.97855,5.884896 c -1.89251,-1.194172 11.53024,-25.010352 14.12442,-25.061158 0.9625,-0.01885 1.75,0.263886 1.75,0.628302 0,0.811029 -11.39914,21.158683 -13.20367,23.568768 -0.85658,1.144017 -1.76258,1.437143 -2.67075,0.864088 z M 179.0578,65.75 C 174.57854,55.726942 174.66992,56 175.79519,56 c 0.55504,0 1.45877,1.2375 2.0083,2.75 0.54952,1.5125 2.16287,5.3375 3.58521,8.5 1.42234,3.1625 2.20876,5.75 1.74758,5.75 -0.46117,0 -2.29649,-3.2625 -4.07848,-7.25 z m 187.5535,1.5 c 1.42234,-3.1625 3.03569,-6.9875 3.58521,-8.5 0.54953,-1.5125 1.45326,-2.75 2.0083,-2.75 1.12527,0 1.21665,-0.273058 -3.26261,9.75 -1.78199,3.9875 -3.61731,7.25 -4.07848,7.25 -0.46118,0 0.32524,-2.5875 1.74758,-5.75 z M 201.56051,56.605386 C 198.7772,47.480319 198.52614,46.104351 199.90825,47.55 201.306,49.012012 205.95238,65 204.97951,65 c -0.47216,0 -2.01071,-3.777576 -3.419,-8.394614 z M 344.67276,56.75 C 346.86204,49.556289 349,44.939406 349,47.405386 349,49.597072 343.76533,65 343.02049,65 c -0.47217,0 0.27135,-3.7125 1.65227,-8.25 z M 226.54938,56.867999 C 222.58764,39.747254 222.47454,39.049051 223.90605,40.55 c 1.12554,1.180127 4.45844,17.418844 3.72554,18.15174 -0.29384,0.293842 -0.78083,-0.531342 -1.08221,-1.833741 z M 320,58.273631 c 0,-2.637664 3.29234,-16.872703 4.0992,-17.723631 1.25206,-1.320441 1.14443,-0.354356 -1.03325,9.275044 C 321.36976,57.32536 320,61.099889 320,58.273631 Z M 249.6389,51.25 c -1.44308,-10.079425 -1.76067,-15.700012 -0.83344,-14.75 1.00388,1.028549 2.772,18.5 1.87221,18.5 -0.27603,0 -0.74348,-1.6875 -1.03877,-3.75 z m 47.99961,-4.75 c 0.31901,-4.95 0.99353,-9.440185 1.49894,-9.97819 0.56004,-0.596155 0.65004,1.94244 0.23045,6.5 -1.02823,11.168443 -2.40322,13.933864 -1.72939,3.47819 z M 272.22254,39.75 C 272.45379,27.873314 272.74982,25.5 274,25.5 c 1.25018,0 1.54621,2.373314 1.77746,14.25 C 276.04616,53.550281 275.99006,54 274,54 c -1.99006,0 -2.04616,-0.449719 -1.77746,-14.25 z"
         id="path241" />
    </g>
  </g>
</svg>
