<?xml version="1.0" encoding="UTF-8" standalone="no"?>
<!-- Uploaded to: SVG Repo, www.svgrepo.com, Generator: SVG Repo Mixer Tools -->

<svg
   xmlns:dc="http://purl.org/dc/elements/1.1/"
   xmlns:cc="http://creativecommons.org/ns#"
   xmlns:rdf="http://www.w3.org/1999/02/22-rdf-syntax-ns#"
   xmlns:svg="http://www.w3.org/2000/svg"
   xmlns="http://www.w3.org/2000/svg"
   xmlns:sodipodi="http://sodipodi.sourceforge.net/DTD/sodipodi-0.dtd"
   xmlns:inkscape="http://www.inkscape.org/namespaces/inkscape"
   version="1.1"
   id="Layer_1"
   viewBox="0 0 500 500"
   xml:space="preserve"
   sodipodi:docname="arriere_plans.svg"
   inkscape:version="0.92.5 (2060ec1f9f, 2020-04-08)"
   width="500"
   height="500"
   style="fill:#000000"><metadata
   id="metadata79"><rdf:RDF><cc:Work
       rdf:about=""><dc:format>image/svg+xml</dc:format><dc:type
         rdf:resource="http://purl.org/dc/dcmitype/StillImage" /><dc:title></dc:title></cc:Work></rdf:RDF></metadata><defs
   id="defs77">
	

		
	</defs><sodipodi:namedview
   pagecolor="#ffffff"
   bordercolor="#666666"
   borderopacity="1"
   objecttolerance="10"
   gridtolerance="10"
   guidetolerance="10"
   inkscape:pageopacity="0"
   inkscape:pageshadow="2"
   inkscape:window-width="1398"
   inkscape:window-height="851"
   id="namedview75"
   showgrid="false"
   inkscape:zoom="0.962"
   inkscape:cx="382.28543"
   inkscape:cy="185.24935"
   inkscape:window-x="42"
   inkscape:window-y="25"
   inkscape:window-maximized="1"
   inkscape:current-layer="Layer_1"
   fit-margin-top="0"
   fit-margin-left="0"
   fit-margin-right="0"
   fit-margin-bottom="0" />
<path
   style="opacity:1;vector-effect:none;fill:#ffffff;fill-opacity:1;stroke:none;stroke-width:30.59110641;stroke-linecap:round;stroke-linejoin:round;stroke-miterlimit:4;stroke-dasharray:none;stroke-dashoffset:0;stroke-opacity:1"
   d="m 203.63076,243.39824 c -60.79627,47.93089 -121.31575,96.18432 -181.97003,144.28153 -0.759648,19.27711 -0.466791,38.99764 -0.244901,58.35417 4.007264,4.64939 7.558255,11.90011 15.120536,10.73204 74.468945,1.34928 148.971485,0.28006 223.453325,0.49415 64.33723,-0.0801 128.67447,-0.16024 193.0117,-0.24036 2.53236,-6.25907 0.6576,-14.35259 1.50555,-21.31206 2.5786,-7.51336 -5.87397,-10.12119 -10.51042,-14.24855 C 364.27929,362.07285 284.98159,302.15032 204.82148,243.32312 l -1.07863,0.068 z m 25.27339,31.60124 c 43.39201,30.59585 86.78435,61.19126 130.17975,91.78267 -2.30225,4.20203 -4.23915,8.62087 -7.02402,12.56131 -48.77009,-33.89174 -97.35813,-68.02401 -145.72676,-102.43552 1.79175,-4.57641 4.31377,-8.8042 6.54055,-13.21709 5.34349,3.76954 10.68698,7.53909 16.03048,11.30863 z"
   id="path951"
   inkscape:connector-curvature="0" /><path
   style="opacity:1;vector-effect:none;fill:#ffffff;fill-opacity:1;stroke:none;stroke-width:71.90112305;stroke-linecap:butt;stroke-linejoin:miter;stroke-miterlimit:4;stroke-dasharray:none;stroke-dashoffset:0;stroke-opacity:1"
   d="m 372.73161,216.48232 c -9.69078,6.05111 -16.82084,16.79617 -25.29022,24.97437 -11.21559,12.79345 -23.52451,24.4793 -33.67827,38.46308 -3.68731,7.65967 1.68993,15.29062 7.50661,18.2758 43.61361,32.60455 87.57043,64.54768 131.48314,96.57024 7.11026,4.8514 15.1998,-3.70864 13.70583,-12.7739 0.0733,-30.80568 0.43507,-61.71579 -0.10505,-92.45662 -1.69825,-10.28153 -12.08602,-12.79609 -18.02264,-18.97039 -23.03807,-17.76096 -45.82612,-36.01038 -69.14175,-53.24209 -2.15291,-0.33182 -4.28443,-1.74275 -6.45769,-0.84049 z"
   id="path905"
   inkscape:connector-curvature="0" /><path
   style="opacity:1;vector-effect:none;fill:#ffffff;fill-opacity:1;stroke:none;stroke-width:29.99896049;stroke-linecap:round;stroke-linejoin:round;stroke-miterlimit:4;stroke-dasharray:none;stroke-dashoffset:0;stroke-opacity:1"
   d="m 370.14682,238.60476 c -18.63201,19.98994 -36.24965,41.0644 -53.43888,62.33555 0.21259,3.97152 6.33078,5.56947 8.68614,8.59315 42.18015,33.29187 84.62993,66.25242 127.25907,98.96881 3.66564,-0.47627 0.71699,-6.79249 1.77041,-9.40829 -0.002,-30.8057 0.54365,-61.82708 -0.29845,-92.49529 -27.65671,-22.64118 -55.01812,-45.65003 -82.97533,-67.91678 l -0.92378,-0.1076 z m -5.94465,31.21346 c 25.36095,19.35897 51.00787,38.46344 75.63995,58.70541 -0.72259,4.24455 -3.81655,9.35348 -6.39741,12.21414 -25.46399,-19.19878 -51.08623,-38.51304 -75.89372,-58.3826 1.66616,-4.11591 3.71612,-9.80047 6.65118,-12.53695 z"
   id="path953"
   inkscape:connector-curvature="0" /><path
   d="M 24.383101,26.593701 V 474.01597 H 467.60601 V 26.593701 Z M 453.89814,456.5829 H 38.090984 v -67.90382 l 176.031346,-145.50503 87.2422,67.79154 152.53361,118.54626 z m 0,-47.49954 -137.8709,-107.14367 54.08446,-63.86587 83.78644,69.25784 z m 0,-122.54347 -85.27886,-70.49081 -64.74172,76.44863 L 213.89639,222.56942 38.090984,367.88949 V 44.02567 H 453.89814 Z"
   id="path2"
   inkscape:connector-curvature="0"
   style="stroke:none;stroke-width:13.88353443;stroke-linecap:round;stroke-linejoin:round;stroke-miterlimit:4;stroke-dasharray:none;stroke-opacity:1;fill:none" />


<g
   id="g24"
   transform="matrix(0.86566976,0,0,1.035779,28.675013,-28.078867)">
	<g
   id="g22">
		
			<rect
   x="292.95999"
   y="241.839"
   transform="matrix(0.5226,-0.8526,0.8526,0.5226,-144.3615,417.7931)"
   width="15.835"
   height="191.924"
   id="rect20" />
	</g>
</g>
<g
   id="g30"
   transform="matrix(0.86566976,0,0,1.035779,28.675013,-28.078867)">
	<g
   id="g28">
		
			<rect
   x="419.62701"
   y="268.513"
   transform="matrix(0.5433,-0.8396,0.8396,0.5433,-75.0269,505.9926)"
   width="15.836"
   height="106.882"
   id="rect26" />
	</g>
</g>




<g
   id="g60"
   transform="matrix(0.86566976,0,0,1.035779,28.675013,-28.078867)"
   style="fill:#ffffff">
	<g
   id="g58"
   style="fill:#ffffff">
		<rect
   x="39.588001"
   y="274.474"
   width="36.948002"
   height="15.835"
   id="rect56"
   style="fill:#ffffff" />
	</g>
</g>


<rect
   style="opacity:1;vector-effect:none;fill:none;fill-opacity:1;stroke:#0000ff;stroke-width:33.52472687;stroke-linecap:round;stroke-linejoin:round;stroke-miterlimit:4;stroke-dasharray:none;stroke-dashoffset:0;stroke-opacity:1"
   id="rect931"
   width="466.47528"
   height="466.47528"
   x="16.762363"
   y="16.762362"
   rx="57.664246"
   ry="57.664246" /><path
   style="opacity:1;vector-effect:none;fill:#0000ff;fill-opacity:1;stroke:none;stroke-width:30.65886307;stroke-linecap:round;stroke-linejoin:round;stroke-miterlimit:4;stroke-dasharray:none;stroke-dashoffset:0;stroke-opacity:1"
   d="m 116.87459,24.324005 c -23.960686,0.393719 -48.009849,-0.555173 -71.914866,1.178432 -8.30529,2.60894 -13.241787,11.580008 -16.462042,19.119822 0.02169,107.161071 -0.428332,214.335751 0.462382,321.495401 0.390809,9.83705 13.325382,13.5462 19.433683,6.34301 56.502023,-46.55369 112.334963,-93.93139 168.778543,-140.55718 28.55744,21.4544 55.88406,45.05549 85.46844,65.24557 7.97768,5.36488 15.93934,-1.90898 20.32736,-8.36628 17.71641,-20.60956 34.84084,-41.57762 52.53498,-62.16452 26.60074,21.22858 52.14535,43.5957 78.81551,64.82218 7.74859,5.04254 17.84333,-2.39064 16.5157,-11.27333 0.57418,-81.62393 -0.0288,-163.25128 -0.0888,-244.876375 C 470.41875,25.963566 460.3839,23.440087 452.78902,24.620941 340.81757,24.518426 228.84609,24.216518 116.87459,24.324005 Z m 196.20896,55.617884 c 25.78389,0.18072 48.18928,25.857861 43.54855,51.846901 -3.27275,26.83085 -33.46248,45.0982 -58.50578,36.29157 -22.88822,-6.97192 -37.80951,-34.19244 -29.13833,-57.21763 6.04957,-18.550851 24.82565,-31.573459 44.09556,-30.920841 z M 124.99311,94.990378 c 9.77488,0.04191 15.38346,9.928232 18.96883,17.705482 6.49929,9.96165 20.60866,0.21718 28.23956,8.8854 13.86539,12.14267 11.4881,39.21556 -5.83139,46.87453 -23.12931,1.3746 -47.13416,1.2685 -70.583446,-0.19188 -10.733529,-4.48223 -15.524625,-17.17551 -13.954032,-28.25946 -0.125877,-10.49799 7.717743,-20.42462 17.595292,-23.35593 8.952006,-5.22759 10.002296,-19.429413 21.405816,-21.351541 1.37022,-0.253078 2.7676,-0.348865 4.15937,-0.306601 z"
   id="path937"
   inkscape:connector-curvature="0" /><path
   style="opacity:1;vector-effect:none;fill:#ffffff;fill-opacity:1;stroke:none;stroke-width:29.99896049;stroke-linecap:round;stroke-linejoin:round;stroke-miterlimit:4;stroke-dasharray:none;stroke-dashoffset:0;stroke-opacity:1"
   d="m 311.58352,79.423044 c -25.82912,-0.19419 -48.61508,24.806586 -44.97466,50.606646 1.94978,23.30765 24.15609,42.35699 47.50033,40.55475 25.5197,-0.83648 47.14155,-26.05202 43.11087,-51.46342 -3.16592,-21.78896 -23.49113,-39.845473 -45.63654,-39.697976 z"
   id="path957"
   inkscape:connector-curvature="0" /><path
   style="opacity:1;vector-effect:none;fill:#ffffff;fill-opacity:1;stroke:none;stroke-width:29.99896049;stroke-linecap:round;stroke-linejoin:round;stroke-miterlimit:4;stroke-dasharray:none;stroke-dashoffset:0;stroke-opacity:1"
   d="m 124.79615,94.838926 c -10.38495,-1.016969 -15.56369,9.415954 -20.88544,16.372144 -5.900984,7.06651 -16.679683,9.30286 -20.142366,18.76989 -4.760867,12.49787 -2.996984,30.11643 9.444842,37.5134 9.512194,3.22941 20.028084,1.00493 29.920044,1.87927 14.92774,-0.59353 30.27089,1.74517 44.94433,-1.55848 16.56404,-9.07035 17.75152,-35.17998 3.60407,-47.07449 -5.01956,-6.45776 -14.47922,-2.53999 -21.39943,-4.84372 -7.90902,-2.06625 -8.73714,-12.10544 -14.74792,-16.688861 -2.8148,-3.098036 -6.52043,-4.756624 -10.73813,-4.369153 z"
   id="path959"
   inkscape:connector-curvature="0" /></svg>