<?xml version="1.0" encoding="UTF-8" standalone="no"?>
<!-- Uploaded to: SVG Repo, www.svgrepo.com, Generator: SVG Repo Mixer Tools -->

<svg
   xmlns:dc="http://purl.org/dc/elements/1.1/"
   xmlns:cc="http://creativecommons.org/ns#"
   xmlns:rdf="http://www.w3.org/1999/02/22-rdf-syntax-ns#"
   xmlns:svg="http://www.w3.org/2000/svg"
   xmlns="http://www.w3.org/2000/svg"
   xmlns:sodipodi="http://sodipodi.sourceforge.net/DTD/sodipodi-0.dtd"
   xmlns:inkscape="http://www.inkscape.org/namespaces/inkscape"
   fill="#000000"
   height="800px"
   width="800px"
   version="1.1"
   id="Capa_1"
   viewBox="0 0 489.8 489.8"
   xml:space="preserve"
   sodipodi:docname="bulle03.svg"
   inkscape:version="0.92.5 (2060ec1f9f, 2020-04-08)"><metadata
   id="metadata15"><rdf:RDF><cc:Work
       rdf:about=""><dc:format>image/svg+xml</dc:format><dc:type
         rdf:resource="http://purl.org/dc/dcmitype/StillImage" /><dc:title /></cc:Work></rdf:RDF></metadata><defs
   id="defs13" /><sodipodi:namedview
   pagecolor="#ffffff"
   bordercolor="#666666"
   borderopacity="1"
   objecttolerance="10"
   gridtolerance="10"
   guidetolerance="10"
   inkscape:pageopacity="0"
   inkscape:pageshadow="2"
   inkscape:window-width="1398"
   inkscape:window-height="851"
   id="namedview11"
   showgrid="false"
   inkscape:zoom="0.295"
   inkscape:cx="1252.1031"
   inkscape:cy="686.85569"
   inkscape:window-x="42"
   inkscape:window-y="25"
   inkscape:window-maximized="1"
   inkscape:current-layer="Capa_1" />

<rect
   style="opacity:1;vector-effect:none;fill:#000000;fill-opacity:1;stroke:#060606;stroke-width:34.15738297;stroke-linecap:butt;stroke-linejoin:miter;stroke-miterlimit:4;stroke-dasharray:none;stroke-dashoffset:0;stroke-opacity:1"
   id="rect10"
   width="417.37927"
   height="313.1835"
   x="45.195847"
   y="40.432781" /><path
   style="opacity:1;vector-effect:none;fill:#000000;fill-opacity:1;stroke:#060606;stroke-width:34.15742874;stroke-linecap:butt;stroke-linejoin:bevel;stroke-miterlimit:4;stroke-dasharray:none;stroke-dashoffset:0;stroke-opacity:1"
   d="m 57.529292,342.94109 103.900788,4.50693 -51.36412,29.35093 19.81188,44.02638 L 4.4026386,475.12454 275.89868,448.70871 220.13192,382.66913 243.97955,331.30501"
   id="path817"
   inkscape:connector-curvature="0"
   sodipodi:nodetypes="cccccccc" /><path
   style="stroke-width:1;fill:#00ff00"
   d="m 228.89873,204.27669 h 58.8 v 58.7 c 0,6.8 5.5,12.3 12.3,12.3 6.8,0 12.3,-5.5 12.3,-12.3 v -58.8 h 58.6 c 6.8,0 12.3,-5.5 12.3,-12.3 0,-6.8 -5.5,-12.3 -12.3,-12.3 h -58.8 v -58.6 c 0,-6.8 -5.5,-12.3 -12.3,-12.3 -6.8,0 -12.3,5.5 -12.3,12.3 v 58.8 h -58.6 c -6.8,0 -12.3,5.5 -12.3,12.3 0,6.8 5.5,12.2 12.3,12.2 z"
   id="path4"
   inkscape:connector-curvature="0" /></svg>