<?xml version="1.0" encoding="UTF-8" standalone="no"?>
<!-- Uploaded to: SVG Repo, www.svgrepo.com, Generator: SVG Repo Mixer Tools -->

<svg
   xmlns:dc="http://purl.org/dc/elements/1.1/"
   xmlns:cc="http://creativecommons.org/ns#"
   xmlns:rdf="http://www.w3.org/1999/02/22-rdf-syntax-ns#"
   xmlns:svg="http://www.w3.org/2000/svg"
   xmlns="http://www.w3.org/2000/svg"
   xmlns:sodipodi="http://sodipodi.sourceforge.net/DTD/sodipodi-0.dtd"
   xmlns:inkscape="http://www.inkscape.org/namespaces/inkscape"
   version="1.1"
   id="Layer_1"
   viewBox="0 0 500 500"
   xml:space="preserve"
   sodipodi:docname="nouvel_arriere_plan.svg"
   inkscape:version="0.92.5 (2060ec1f9f, 2020-04-08)"
   width="500"
   height="500"
   style="fill:#000000"><metadata
   id="metadata79"><rdf:RDF><cc:Work
       rdf:about=""><dc:format>image/svg+xml</dc:format><dc:type
         rdf:resource="http://purl.org/dc/dcmitype/StillImage" /><dc:title /></cc:Work></rdf:RDF></metadata><defs
   id="defs77">
	

		
	</defs><sodipodi:namedview
   pagecolor="#ffffff"
   bordercolor="#666666"
   borderopacity="1"
   objecttolerance="10"
   gridtolerance="10"
   guidetolerance="10"
   inkscape:pageopacity="0"
   inkscape:pageshadow="2"
   inkscape:window-width="1878"
   inkscape:window-height="1031"
   id="namedview75"
   showgrid="false"
   inkscape:zoom="0.96199999"
   inkscape:cx="382.73452"
   inkscape:cy="74.371754"
   inkscape:window-x="42"
   inkscape:window-y="25"
   inkscape:window-maximized="1"
   inkscape:current-layer="Layer_1"
   fit-margin-top="0"
   fit-margin-left="0"
   fit-margin-right="0"
   fit-margin-bottom="0" />













<path
   inkscape:connector-curvature="0"
   style="fill:#a6e7ff;stroke-width:1.17749202"
   d="M 486.3761,272.74267 V 60.995418 c 0,-17.185431 -11.30743,-31.115196 -25.2553,-31.115196 H 55.073377 c -13.948921,0 -25.255306,13.931067 -25.255306,31.115196 V 272.71654 L 246.15633,421.00875 Z"
   id="path4" /><text
   xml:space="preserve"
   style="font-style:normal;font-variant:normal;font-weight:normal;font-stretch:normal;font-size:342.00952148px;line-height:1.25;font-family:'Liberation Sans Narrow';-inkscape-font-specification:'Liberation Sans Narrow';letter-spacing:0px;word-spacing:0px;fill:#000000;fill-opacity:1;stroke:none;stroke-width:21.37559509"
   x="269.71481"
   y="273.35138"
   id="text25"
   transform="scale(1.0880456,0.91907914)"><tspan
     sodipodi:role="line"
     id="tspan23"
     x="269.71481"
     y="273.35138"
     style="font-style:normal;font-variant:normal;font-weight:bold;font-stretch:condensed;font-family:'Liberation Sans Narrow';-inkscape-font-specification:'Liberation Sans Narrow Bold Condensed';stroke-width:21.37559509">+</tspan></text>
<path
   inkscape:connector-curvature="0"
   style="fill:#ffffff;stroke-width:1.06083536"
   d="m 277.15924,237.47202 c -1.38121,-26.89535 -23.62586,-48.27649 -50.86387,-48.27649 -6.56445,0 -12.83186,1.25603 -18.59326,3.51667 -2.01346,-31.2713 -28.00075,-56.01634 -59.78124,-56.01634 -12.8255,0 -24.69943,4.04284 -34.44533,10.90325 -7.69211,-23.53356 -29.810532,-40.53981 -55.912381,-40.53981 -10.034442,0 -19.479059,2.51842 -27.745088,6.94847 V 237.47309 H 277.15924 Z"
   id="path10" /><path
   inkscape:connector-curvature="0"
   style="fill:#7eb35b;stroke-width:1.06083536"
   d="m 29.817012,272.72251 0,154.55831 c -1.118725,16.84613 15.856812,42.58626 31.755885,42.58626 H 105.9521 l 93.97408,-37.1547 87.07973,-115.63315 C 163.96387,262.2351 29.817012,272.72251 29.817012,272.72251 Z"
   id="path12"
   sodipodi:nodetypes="ccccccc" /><path
   inkscape:connector-curvature="0"
   style="opacity:0.1;stroke-width:1.06083536;enable-background:new"
   d="m 269.92433,339.75988 17.08052,-22.68172 C 163.96281,262.23404 29.817012,272.72146 29.817012,272.72146 v 24.1584 c 35.343847,-1.05553 140.720848,0.006 240.107318,42.88002 z"
   id="path14" /><path
   inkscape:connector-curvature="0"
   style="fill:#a5eb78;stroke-width:1.06083536"
   d="m 105.9521,469.86495 h 355.1687 c 13.94893,0 25.2553,-11.30744 25.2553,-25.2553 V 272.74267 c 0,0 -247.83126,-6.1486 -380.424,197.12228 z"
   id="path16" /><path
   inkscape:connector-curvature="0"
   style="opacity:0.1;stroke-width:1.06083536;enable-background:new"
   d="m 486.3761,298.32259 v -25.57992 c 0,0 -247.83126,-6.14754 -380.424,197.12335 h 42.20851 C 256.71589,327.4648 423.8473,302.57761 486.3761,298.32259 Z"
   id="path18" /></svg>