<?xml version="1.0" encoding="UTF-8" standalone="no"?>
<!-- Uploaded to: SVG Repo, www.svgrepo.com, Generator: SVG Repo Mixer Tools -->

<svg
   xmlns:dc="http://purl.org/dc/elements/1.1/"
   xmlns:cc="http://creativecommons.org/ns#"
   xmlns:rdf="http://www.w3.org/1999/02/22-rdf-syntax-ns#"
   xmlns:svg="http://www.w3.org/2000/svg"
   xmlns="http://www.w3.org/2000/svg"
   xmlns:sodipodi="http://sodipodi.sourceforge.net/DTD/sodipodi-0.dtd"
   xmlns:inkscape="http://www.inkscape.org/namespaces/inkscape"
   fill="#000000"
   width="800px"
   height="800px"
   viewBox="0 -0.09 122.88 122.88"
   version="1.1"
   id="Layer_1"
   style="enable-background:new 0 0 122.88 122.7"
   xml:space="preserve"
   sodipodi:docname="qrcode.svg"
   inkscape:version="0.92.5 (2060ec1f9f, 2020-04-08)"><metadata
   id="metadata13"><rdf:RDF><cc:Work
       rdf:about=""><dc:format>image/svg+xml</dc:format><dc:type
         rdf:resource="http://purl.org/dc/dcmitype/StillImage" /></cc:Work></rdf:RDF></metadata><defs
   id="defs11" /><sodipodi:namedview
   pagecolor="#ffffff"
   bordercolor="#666666"
   borderopacity="1"
   objecttolerance="10"
   gridtolerance="10"
   guidetolerance="10"
   inkscape:pageopacity="0"
   inkscape:pageshadow="2"
   inkscape:window-width="640"
   inkscape:window-height="480"
   id="namedview9"
   showgrid="false"
   inkscape:zoom="0.295"
   inkscape:cx="400"
   inkscape:cy="400"
   inkscape:window-x="42"
   inkscape:window-y="25"
   inkscape:window-maximized="0"
   inkscape:current-layer="Layer_1" />

<style
   type="text/css"
   id="style2">.st0{fill-rule:evenodd;clip-rule:evenodd;}</style>

<g
   id="g6"
   transform="matrix(0.73690274,0,0,0.73690274,16.141017,16.661694)">

<path
   class="st0"
   d="M 0.18,0 H 44.81 V 44.45 H 0.18 Z M 111.5,111.5 h 11.38 v 11.2 H 111.5 Z m -21.87,-0.02 h 11.38 v 10.67 H 89.63 89.62 78.25 V 100.33 H 89.27 V 89.27 h 11.21 V 67.22 h 11.38 v 10.84 h 10.84 v 11.2 h -10.84 v 11.2 H 100.65 100.48 89.63 Z M 55.84,89.09 H 66.86 V 77.89 H 56.2 V 66.69 H 66.86 V 55.49 H 56.02 v 11.2 H 44.63 v -11.2 h 11.2 V 22.23 h 11.38 v 33.25 h 11.02 v 11.2 h 10.84 v -11.2 h 11.38 v 11.2 H 89.63 v 11.2 H 78.25 V 99.93 H 67.22 v 22.23 H 55.84 Z m 55.47,-33.61 h 11.38 v 11.2 h -11.38 z m -88.9,0 h 11.38 v 11.2 H 22.41 Z m -22.23,0 h 11.38 v 11.2 H 0.18 Z M 55.84,0 H 67.22 V 11.2 H 55.84 Z M 0,78.06 h 44.63 v 44.45 H 0 Z m 10.84,10.8 h 22.95 v 22.86 H 10.84 Z M 78.06,0 h 44.63 V 44.45 H 78.06 Z m 10.85,10.8 h 22.95 V 33.66 H 88.91 Z m -77.89,0 H 33.97 V 33.66 H 11.02 Z"
   id="path4"
   inkscape:connector-curvature="0"
   style="clip-rule:evenodd;fill-rule:evenodd" />

</g>

</svg>