<?xml version="1.0" encoding="iso-8859-1"?>
<!-- Uploaded to: SVG Repo, www.svgrepo.com, Generator: SVG Repo Mixer Tools -->
<svg height="800px" width="800px" version="1.1" id="Layer_1" xmlns="http://www.w3.org/2000/svg" xmlns:xlink="http://www.w3.org/1999/xlink" 
	 viewBox="0 0 512 512" xml:space="preserve">
<path style="fill:#BFDCFF;" d="M0,256c0,141.384,114.615,256,256,256l22.261-256L256,0C114.615,0,0,114.615,0,256z"/>
<path style="fill:#8BC0FF;" d="M256,0v512c141.384,0,256-114.616,256-256S397.384,0,256,0z"/>
<polygon style="fill:#3897FF;" points="155.826,144.696 155.826,367.304 256,309.469 278.261,256 256,202.53 "/>
<polygon style="fill:#2D79CC;" points="289.391,144.696 289.391,221.81 256,202.53 256,309.469 289.391,290.19 289.391,367.304 
	356.174,367.304 356.174,144.696 "/>
</svg>