<svg width="215" height="170" xmlns="http://www.w3.org/2000/svg">

 <g id="imagebot_2">
  <title>imagebot_2</title>
  <rect fill="#e4cfa3" height="10.667" x="407.73" y="419" stroke-linecap="round" stroke="#060000" width="14.333" transform="rotate(20.98, 16.0376, 125.333) matrix(1.21631, 0.0017702, 0.0017702, 1.22024, -489.355, -393.192)" ry="5.1667" rx="6.3333" fill-rule="evenodd" stroke-width="1.5" stroke-linejoin="round" id="imagebot_72"/>
  <rect fill="#e4cfa3" height="10.667" x="-78.906" y="613.19" stroke-linecap="round" stroke="#060000" width="14.333" transform="matrix(-1.12322, 0.466942, 0.464917, 1.12811, -270.197, -539.769)" ry="5.1667" rx="6.3333" fill-rule="evenodd" stroke-width="1.5" stroke-linejoin="round" id="imagebot_71"/>
  <rect fill="#ff5034" height="43.929" x="-430.79" y="378.78" stroke-linecap="round" stroke="#000" width="27.376" transform="matrix(-1.13351, -0.441108, -0.439194, 1.13845, -270.197, -539.769)" ry="19.577" rx="6.6848" fill-rule="evenodd" stroke-width="1.7508" stroke-linejoin="round" id="imagebot_70"/>
  <rect fill="#9cb5cd" height="37.056" x="239.1" y="535.66" stroke-linecap="round" stroke="#000" width="60.181" transform="matrix(1.21563, -9.06121e-05, 0.00180338, 1.22092, -270.197, -539.769)" ry="10.198" rx="29.573" fill-rule="evenodd" stroke-width="2" stroke-linejoin="round" id="imagebot_69"/>
  <path transform="matrix(1.21563, 0, 0, 1.22092, -270.197, -539.769)" fill="#fff" stroke-width="1.2681" stroke-linecap="round" stroke="#000" d="M269.91,569.16998L269.62061,557.78098" stroke-linejoin="round" id="imagebot_68"/>
  <path transform="matrix(1.21563, 0, 0, 1.22092, -270.197, -539.769)" d="M272.78,573.73999S273.00493,564.71399 283.008,564.22349C296.464,563.56382 298.21,572.35559 298.21,572.35559C299.4096,574.97729 272.674,577.43089 272.78,573.73999z" fill="#473535" stroke-width="1.6886" stroke="#000" id="imagebot_67"/>
  <path transform="matrix(1.21563, 0, 0, 1.22092, -270.197, -539.769)" d="M266.98001,573.75S266.75327,565.1345 256.66801,564.6664C243.10101,564.03672 241.34101,572.4286 241.34101,572.4286C240.13151,574.931 267.08701,577.273 266.98001,573.75z" fill="#473535" stroke-width="1.6886" stroke="#000" id="imagebot_66"/>
  <rect fill="#ff5034" height="43.929" x="56.029" y="575.15" stroke-linecap="round" stroke="#000" width="27.376" transform="rotate(-22.684, 87.928, 100.043) matrix(1.21642, -0.00188411, -0.00188411, 1.22014, 4.24817, -628.387)" ry="19.577" rx="6.6848" fill-rule="evenodd" stroke-width="1.7508" stroke-linejoin="round" id="imagebot_65"/>
  <path transform="matrix(1.21563, 0, 0, 1.22092, -270.197, -542.21)" fill="#ff5034" stroke-width="2.1061" stroke-linecap="round" stroke="#000" fill-rule="evenodd" d="M269.1,488.33 C268.989,488.332 268.878,488.337 268.767,488.34 C268.704,488.338 268.641,488.336 268.578,488.335 C268.481,488.333 268.382,488.335 268.284,488.335 L268.284,488.361 C260.849,488.782 253.96,493.405 249.344,499.241 C239.45,511.667 235.676,528.032 235.343,543.737 C235.603,547.764 234.844,552.6 236.482,556.093 C242.436,559.876 252.935,560.509 260.093,561.394 C261.993,561.482 265.01,561.506 268.285,561.525 L268.285,561.535 C268.629,561.533 268.956,561.532 269.295,561.53 C269.328,561.53 269.361,561.531 269.394,561.53 C272.67,561.511 275.687,561.487 277.586,561.399 C284.744,560.515 295.243,559.882 301.197,556.098 C302.836,552.605 302.076,547.77 302.336,543.742 C302.003,528.038 298.23,511.672 288.335,499.246 C283.719,493.41 276.83,488.787 269.395,488.366 L269.395,488.331 C269.298,488.331 269.199,488.329 269.102,488.331 L269.1,488.33 z" stroke-linejoin="round" id="imagebot_64"/>
  <rect transform="matrix(1.21563, 0, 0, 1.22092, -270.197, -539.769)" fill="#e4cfa3" stroke-width="2" x="233.33" y="447.45" stroke-linecap="round" stroke="#000" width="70" height="60" ry="29" rx="33.5" fill-rule="evenodd" stroke-linejoin="bevel" id="imagebot_63"/>
  <g transform="matrix(0.567468, 0, 0, -0.569939, 40.7733, 48.4846)" id="imagebot_61">
   <path d="M0,0C0,-2.958 -2.396,-5.355 -5.355,-5.355C-8.313,-5.355 -10.711,-2.958 -10.711,0C-10.711,2.957 -8.313,5.356 -5.355,5.356C-2.396,5.356 0,2.957 0,0" id="imagebot_62"/>
  </g>
  <g transform="matrix(0.567468, 0, 0, -0.569939, 74.8109, 47.8742)" id="imagebot_59">
   <path d="M0,0C0,-2.958 -2.396,-5.355 -5.355,-5.355C-8.313,-5.355 -10.711,-2.958 -10.711,0C-10.711,2.957 -8.313,5.356 -5.355,5.356C-2.396,5.356 0,2.957 0,0" id="imagebot_60"/>
  </g>
  <path fill="#4a2f2b" stroke-width="13.435" stroke-linecap="round" stroke="#000" transform="matrix(0.126255, 0, 0, 0.127648, 59.4575, -56.1363)" d="M-213.36,635.21002C-229.372,625.66502 -233.544,604.18902 -224.157,588.53702C-213.154,570.19102 -188.501,565.42802 -170.555,576.25302C-149.618,588.88302 -144.199,617.07002 -156.629,637.56502C-171.068,661.37302 -203.175,667.51502 -226.495,653.30002C-253.473,636.85502 -260.412,600.41302 -244.217,573.97302C-225.554,543.50402 -184.331,535.68902 -154.453,554.07402C-120.148,575.18302 -111.373,621.66502 -132.173,655.32402C-136.16,661.77562 -141.0941,667.63302 -146.758,672.67602" stroke-linejoin="round" id="imagebot_45"/>
  <path fill="#4a2f2b" stroke-width="13.435" stroke-linecap="round" stroke="#000" transform="matrix(-0.126255, 0, 0, 0.127648, 27.9606, -60.4584)" d="M-213.36,635.21002C-229.372,625.66502 -233.544,604.18902 -224.157,588.53702C-213.154,570.19102 -188.501,565.42802 -170.555,576.25302C-149.618,588.88302 -144.199,617.07002 -156.629,637.56502C-171.068,661.37302 -203.175,667.51502 -226.495,653.30002C-253.473,636.85502 -260.412,600.41302 -244.217,573.97302C-225.554,543.50402 -184.331,535.68902 -154.453,554.07402C-120.148,575.18302 -111.373,621.66502 -132.173,655.32402C-136.16,661.77562 -141.0941,667.63302 -146.758,672.67602" stroke-linejoin="round" id="imagebot_44"/>
  <path fill="#4a2f2b" stroke-width="17.174" stroke-linecap="round" stroke="#000" transform="matrix(-0.106146, 0, 0, 0.0929184, 69.0124, -24.8562)" d="M-213.36,635.21002C-229.372,625.66502 -233.544,604.18902 -224.157,588.53702C-213.154,570.19102 -188.501,565.42802 -170.555,576.25302C-149.618,588.88302 -144.199,617.07002 -156.629,637.56502C-171.068,661.37302 -203.175,667.51502 -226.495,653.30002C-253.473,636.85502 -260.412,600.41302 -244.217,573.97302C-225.554,543.50402 -184.331,535.68902 -154.453,554.07402C-120.148,575.18302 -111.373,621.66502 -132.173,655.32402C-136.16,661.77562 -141.0941,667.63302 -146.758,672.67602" stroke-linejoin="round" id="imagebot_43"/>
  <path fill="#4a2f2b" stroke-width="17.174" stroke-linecap="round" stroke="#000" transform="matrix(0.106146, 0, 0, 0.0929184, 45.7088, -28.3114)" d="M-213.36,635.21002C-229.372,625.66502 -233.544,604.18902 -224.157,588.53702C-213.154,570.19102 -188.501,565.42802 -170.555,576.25302C-149.618,588.88302 -144.199,617.07002 -156.629,637.56502C-171.068,661.37302 -203.175,667.51502 -226.495,653.30002C-253.473,636.85502 -260.412,600.41302 -244.217,573.97302C-225.554,543.50402 -184.331,535.68902 -154.453,554.07402C-120.148,575.18302 -111.373,621.66502 -132.173,655.32402C-136.16,661.77562 -141.0941,667.63302 -146.758,672.67602" stroke-linejoin="round" id="imagebot_42"/>
  <path fill="#4a2f2b" stroke-width="13.435" stroke-linecap="round" stroke="#000" transform="matrix(0.126255, 0, 0, 0.127648, 91.3192, -59.8479)" d="M-213.36,635.21002C-229.372,625.66502 -233.544,604.18902 -224.157,588.53702C-213.154,570.19102 -188.501,565.42802 -170.555,576.25302C-149.618,588.88302 -144.199,617.07002 -156.629,637.56502C-171.068,661.37302 -203.175,667.51502 -226.495,653.30002C-253.473,636.85502 -260.412,600.41302 -244.217,573.97302C-225.554,543.50402 -184.331,535.68902 -154.453,554.07402C-120.148,575.18302 -111.373,621.66502 -132.173,655.32402C-136.16,661.77562 -141.0941,667.63302 -146.758,672.67602" stroke-linejoin="round" id="imagebot_41"/>
  <path fill="#4a2f2b" stroke-width="13.435" stroke-linecap="round" stroke="#000" transform="matrix(0.126255, 0, 0, 0.127648, 103.937, -53.6456)" d="M-213.36,635.21002C-229.372,625.66502 -233.544,604.18902 -224.157,588.53702C-213.154,570.19102 -188.501,565.42802 -170.555,576.25302C-149.618,588.88302 -144.199,617.07002 -156.629,637.56502C-171.068,661.37302 -203.175,667.51502 -226.495,653.30002C-253.473,636.85502 -260.412,600.41302 -244.217,573.97302C-225.554,543.50402 -184.331,535.68902 -154.453,554.07402C-120.148,575.18302 -111.373,621.66502 -132.173,655.32402C-136.16,661.77562 -141.0941,667.63302 -146.758,672.67602" stroke-linejoin="round" id="imagebot_40"/>
  <path transform="matrix(1.21563, 0, 0, 1.22092, -270.197, -539.769)" fill="#624808" stroke-width="0.2" stroke-linecap="round" stroke="#87470a" fill-rule="evenodd" d="M256.56,454.2 C255.209,453.056 253.145,452.258 251.461,452.228 L250.661,452.214 L251.761,451.713 C255.298,450.102 261.599,448.559 264.225,448.662 C264.675,448.68 264.56,448.731 263.832,448.838 C261.31,449.207 259.032,450.966 257.895,453.421 L257.259,454.793 L256.56,454.2 L256.56,454.2 z" stroke-linejoin="round" id="imagebot_38"/>
  <path transform="matrix(1.21563, 0, 0, 1.22092, -270.197, -539.769)" fill="#624808" stroke-width="0.2" stroke-linecap="round" stroke="#87470a" fill-rule="evenodd" d="M270.9,451.7 C269.875,450.229 267.552,448.878 265.961,448.828 L265.261,448.806 L265.861,448.611 C266.594,448.373 272.745,448.58 275.161,448.923 L276.861,449.165 L275.963,449.424 C274.519,449.839 273.531,450.414 272.445,451.471 L271.429,452.46 L270.9,451.7 L270.9,451.7 z" stroke-linejoin="round" id="imagebot_37"/>
  <path transform="matrix(1.21563, 0, 0, 1.22092, -270.197, -539.769)" fill="#624808" stroke-width="0.2" stroke-linecap="round" stroke="#87470a" fill-rule="evenodd" d="M284.7,453.77 C284.423,453.166 283.818,452.26 283.354,451.757 C282.89,451.253 282.621,450.842 282.756,450.842 C283.136,450.842 287.74,453.096 288.861,453.831 L289.861,454.487 L288.934,454.371 C288.055,454.262 286.25,454.457 285.532,454.739 C285.278,454.839 285.087,454.616 284.7,453.77 L284.7,453.77 L284.7,453.77 z" stroke-linejoin="round" id="imagebot_36"/>
  <path transform="matrix(1.21563, 0, 0, 1.22092, -270.197, -539.769)" fill="#624808" stroke-width="0.2" stroke-linecap="round" stroke="#87470a" fill-rule="evenodd" d="M296.93,462.58 C296.015,462.381 295.996,462.361 295.866,461.457 C295.793,460.952 295.682,460.313 295.619,460.038 L295.505,459.538 L296.02,460.01 C296.626,460.566 298.261,462.85 298.024,462.81 C297.935,462.795 297.442,462.691 296.93,462.58 L296.93,462.58 z" stroke-linejoin="round" id="imagebot_35"/>
  <path transform="matrix(1.21563, 0, 0, 1.22092, -270.197, -539.769)" fill="#624808" stroke-width="0.2" stroke-linecap="round" stroke="#87470a" fill-rule="evenodd" d="M240.76,459.85 C240.76,459.644 244.982,455.599 245.088,455.704 C245.13,455.746 244.979,456.2 244.753,456.712 C244.526,457.224 244.288,458.093 244.223,458.643 L244.104,459.643 L243.081,459.643 C242.518,459.643 241.765,459.727 241.409,459.829 C241.052,459.931 240.76,459.941 240.76,459.85 L240.76,459.85 z" stroke-linejoin="round" id="imagebot_34"/>
  <path fill="none" stroke-width="2.5894" stroke-linecap="round" stroke="#000" transform="matrix(-0.217792, 0.240974, 0.320245, 0.395897, 12.7166, -181.501)" d="M455.79999,458.76001A4.8,4.8 0 0 1 448.11999,462.60001" stroke-linejoin="round" id="imagebot_33"/>
  <path fill="none" stroke-width="2.5894" stroke-linecap="round" stroke="#000" transform="matrix(0.242287, 0.216116, -0.276094, 0.428129, 70.2888, -184.541)" d="M455.79999,458.76001A4.8,4.8 0 0 1 448.11999,462.60001" stroke-linejoin="round" id="imagebot_32"/>
  <path fill="#e7d687" stroke-width="1.6547" stroke="#5e3b08" transform="matrix(0.72776, 0, 0, 0.666551, -241.161, -182.978)" fill-rule="evenodd" d="M429.20001,463.76001C427.98651,464.88301 418.10901,457.44651 416.61401,458.15301C415.14041,458.84957 414.84931,471.11601 413.23071,471.30801C411.58891,471.50324 407.96881,459.68101 406.34421,459.37401C404.74261,459.07134 397.29731,468.82371 395.87421,468.02811C394.43121,467.221 398.45141,455.52911 397.31751,454.32511C396.19971,453.13881 384.44351,456.65251 383.76051,455.17257C383.06748,453.67137 393.19231,446.57527 392.98231,444.93557C392.77524,443.31877 381.19931,439.25157 381.51631,437.65277C381.838,436.03097 394.20031,436.24137 394.99431,434.79107C395.7771,433.36137 388.80271,423.26707 389.99911,422.16007C391.21261,421.03707 401.09011,428.47357 402.58511,427.76707C404.05871,427.07052 404.34981,414.80407 405.96841,414.61207C407.61021,414.41685 411.23031,426.23907 412.85491,426.54607C414.45651,426.84873 421.90181,417.09637 423.32491,417.89197C424.76791,418.69908 420.74771,430.39097 421.88161,431.59497C422.99941,432.78127 434.75561,429.26757 435.43861,430.7475C436.13163,432.2487 426.00681,439.3448 426.21681,440.9845C426.42389,442.6013 437.99981,446.6685 437.68281,448.2673C437.36112,449.8891 424.99881,449.6787 424.20481,451.129C423.42202,452.5587 430.39641,462.653 429.20001,463.76z" stroke-linejoin="round" id="imagebot_31"/>
  <g transform="matrix(1.21563, 0, 0, 1.22092, -424.581, -539.769)" id="imagebot_23">
   <path fill="none" stroke-width="0.85229" stroke-linecap="round" stroke="#000" d="M394.17999,534.79999C391.87879,543.34269 403.06559,538.31839 399.08459,534.34477" stroke-linejoin="round" id="imagebot_26"/>
   <path d="M211.8,444.06C211.8,445.3303 211.26274,446.36 210.6,446.36C209.93725,446.36 209.4,445.3303 209.4,444.06C209.4,442.7898 209.93725,441.76 210.6,441.76C211.26274,441.76 211.8,442.7897 211.8,444.06z" transform="matrix(.78229 -.12507 .14475 .90542 165.22 154.47)" id="imagebot_25"/>
   <path d="M211.8,444.06C211.8,445.3303 211.26274,446.36 210.6,446.36C209.93725,446.36 209.4,445.3303 209.4,444.06C209.4,442.7898 209.93725,441.76 210.6,441.76C211.26274,441.76 211.8,442.7897 211.8,444.06z" transform="matrix(.78229 -.12507 .14475 .90542 167.98 154.67)" id="imagebot_24"/>
  </g>
  <path transform="rotate(13.0235, 48.0408, 66.3784) matrix(1, 0, 0, 1, 1.57264, 7.3148)" id="imagebot_76" d="M33.7891,53.1789 C38.2991,56.2832 44.3974,64.7036 59.1471,55.6568 C56.7983,58.1496 55.576,60.6423 52.1007,63.1351 C47.7771,65.6571 44.0167,65.9007 39.1298,61.5878 C36.2231,58.7849 35.5693,57.5007 33.7891,53.1789 z" stroke-opacity="null" stroke-linecap="round" stroke-linejoin="round" stroke-dasharray="null" stroke-width="0.83654" stroke="#000" fill="#bf0000"/>
 </g>
 <metadata>image/svg+xmlOpenclipartMiserable - Mix and math comic character2013-10-16T20:44:10A miserable mix and match of a comic character.https://openclipart.org/detail/185051/miserable---mix-and-math-comic-character-by-anarres-185051anarrescharactercomicexpressionmiserysadtiredunhappyupsetcartoonpersonmanboy</metadata>
</svg>