<?xml version="1.0" encoding="UTF-8" standalone="no"?>
<!-- Created with Inkscape (http://www.inkscape.org/) -->

<svg
   xmlns:dc="http://purl.org/dc/elements/1.1/"
   xmlns:cc="http://creativecommons.org/ns#"
   xmlns:rdf="http://www.w3.org/1999/02/22-rdf-syntax-ns#"
   xmlns:svg="http://www.w3.org/2000/svg"
   xmlns="http://www.w3.org/2000/svg"
   xmlns:sodipodi="http://sodipodi.sourceforge.net/DTD/sodipodi-0.dtd"
   xmlns:inkscape="http://www.inkscape.org/namespaces/inkscape"
   width="24.553108mm"
   height="35.584572mm"
   viewBox="0 0 86.999203 126.08707"
   id="svg5223"
   version="1.1"
   inkscape:version="0.91 r13725"
   sodipodi:docname="mix-and-match-characters45.svg">
  <defs
     id="defs5225">
    <filter
       style="color-interpolation-filters:sRGB"
       id="filter4468">
      <feGaussianBlur
         id="feGaussianBlur4470"
         stdDeviation="0.18874514" />
    </filter>
    <filter
       style="color-interpolation-filters:sRGB"
       id="filter4468-3">
      <feGaussianBlur
         id="feGaussianBlur4470-9"
         stdDeviation="0.18874514" />
    </filter>
    <filter
       style="color-interpolation-filters:sRGB"
       id="filter4468-9">
      <feGaussianBlur
         id="feGaussianBlur4470-1"
         stdDeviation="0.18874514" />
    </filter>
    <filter
       style="color-interpolation-filters:sRGB"
       id="filter4468-39">
      <feGaussianBlur
         id="feGaussianBlur4470-17"
         stdDeviation="0.18874514" />
    </filter>
    <filter
       style="color-interpolation-filters:sRGB"
       id="filter4468-2">
      <feGaussianBlur
         id="feGaussianBlur4470-2"
         stdDeviation="0.18874514" />
    </filter>
    <filter
       style="color-interpolation-filters:sRGB"
       id="filter4468-4">
      <feGaussianBlur
         id="feGaussianBlur4470-5"
         stdDeviation="0.18874514" />
    </filter>
    <filter
       style="color-interpolation-filters:sRGB"
       id="filter4468-0">
      <feGaussianBlur
         id="feGaussianBlur4470-55"
         stdDeviation="0.18874514" />
    </filter>
    <filter
       style="color-interpolation-filters:sRGB"
       id="filter4468-01">
      <feGaussianBlur
         id="feGaussianBlur4470-3"
         stdDeviation="0.18874514" />
    </filter>
    <filter
       style="color-interpolation-filters:sRGB"
       id="filter4468-1">
      <feGaussianBlur
         id="feGaussianBlur4470-4"
         stdDeviation="0.18874514" />
    </filter>
  </defs>
  <sodipodi:namedview
     id="base"
     pagecolor="#ffffff"
     bordercolor="#666666"
     borderopacity="1.0"
     inkscape:pageopacity="0.0"
     inkscape:pageshadow="2"
     inkscape:zoom="2.8"
     inkscape:cx="-53.475747"
     inkscape:cy="52.715163"
     inkscape:document-units="px"
     inkscape:current-layer="g4275"
     showgrid="false"
     fit-margin-top="0"
     fit-margin-left="0"
     fit-margin-right="0"
     fit-margin-bottom="0"
     inkscape:window-width="1855"
     inkscape:window-height="1056"
     inkscape:window-x="1985"
     inkscape:window-y="24"
     inkscape:window-maximized="1" />
  <metadata
     id="metadata5228">
    <rdf:RDF>
      <cc:Work
         rdf:about="">
        <dc:format>image/svg+xml</dc:format>
        <dc:type
           rdf:resource="http://purl.org/dc/dcmitype/StillImage" />
        <dc:title />
      </cc:Work>
    </rdf:RDF>
  </metadata>
  <g
     inkscape:label="Layer 1"
     inkscape:groupmode="layer"
     id="layer1"
     transform="translate(-191.83639,-370.97637)">
    <g
       transform="translate(247.3811,385.33246)"
       id="g4275">
      <path
         style="fill:#ab926c;fill-rule:evenodd;stroke:#000000;stroke-width:1.84176505;stroke-linecap:round;stroke-linejoin:round"
         inkscape:connector-curvature="0"
         d="m -53.668031,85.888428 c 1.7908,2.53818 5.48849,3.61023 8.25906,2.39449 2.77057,-1.21574 3.56481,-4.258872 1.77401,-6.797052 -1.79079,-2.53817 -5.48849,-3.61022 -8.25905,-2.39449 -2.77057,1.21574 -3.56481,4.25887 -1.77402,6.797052 z"
         id="path3954-8-5-7-3-4-8-9-1-7-1" />
      <rect
         style="fill:#e66fc0;fill-rule:evenodd;stroke:#000000;stroke-width:1.61230981;stroke-linecap:round;stroke-linejoin:round"
         height="40.453289"
         x="-8.4121504"
         y="54.421108"
         width="25.209871"
         transform="matrix(-0.89930089,-0.43733043,-0.43733043,0.89930089,0,0)"
         ry="18.028511"
         rx="6.1559086"
         id="rect3252-4-6-2-2-4-1-2-9" />
      <path
         style="fill:#ab926c;fill-rule:evenodd;stroke:#000000;stroke-width:1.84176505;stroke-linecap:round;stroke-linejoin:round"
         inkscape:connector-curvature="0"
         d="m 29.577823,84.962456 c -1.79079,2.538192 -5.48849,3.610242 -8.25906,2.394502 -2.77057,-1.21574 -3.56481,-4.258872 -1.77401,-6.797062 1.79079,-2.53817 5.48849,-3.61022 8.25906,-2.39449 2.77055,1.21574 3.5648,4.25887 1.77401,6.79705 z"
         id="path3954-8-5-7-3-4-8-9-1-7-1-4" />
      <rect
         style="fill:#e66fc0;fill-rule:evenodd;stroke:#000000;stroke-width:1.61230981;stroke-linecap:round;stroke-linejoin:round"
         height="40.453327"
         x="-28.806213"
         y="44.168198"
         width="25.209896"
         transform="matrix(0.89929842,-0.43733552,0.43733552,0.89929842,0,0)"
         ry="18.028528"
         rx="6.1559148"
         id="rect3252-71-0-6-0-2-7-2" />
      <rect
         style="fill:#5a1e3f;fill-rule:evenodd;stroke:#000000;stroke-width:1.82569313;stroke-linecap:round;stroke-linejoin:round"
         height="49.693432"
         x="-40.197861"
         y="60.137821"
         width="56.590832"
         transform="matrix(0.99999998,-1.8158e-4,6.0633989e-4,0.99999982,0,0)"
         ry="7.7642136"
         rx="18.714769"
         id="rect3252-6-7-2-7-0-8-8-6" />
      <path
         style="fill:none;stroke:#000000;stroke-width:1.16784692;stroke-linecap:round;stroke-linejoin:round"
         inkscape:connector-curvature="0"
         d="m -10.650497,110.54168 -0.26647,-10.48398"
         id="path3928-9-81-8-0-8-6-6-5" />
      <path
         style="fill:#5a1e3f;stroke:#000000;stroke-width:1.55500293"
         inkscape:connector-curvature="0"
         d="m -8.0032672,109.22475 c 0,0 0.20714,-8.31197 9.41871,-8.76353 12.3914602,-0.607502 13.9995502,7.48868 13.9995502,7.48868 1.10478,2.4143 -23.5164102,4.67376 -23.4176402,1.27485 z"
         id="path4010-7-1-8-9-3-9-0-7" />
      <path
         style="fill:#5a1e3f;stroke:#000000;stroke-width:1.55500293"
         inkscape:connector-curvature="0"
         d="m -13.342997,109.23504 c 0,0 -0.20879,-7.93387 -9.49597,-8.36496 -12.49332,-0.57987 -14.113754,7.14803 -14.113754,7.14803 -1.11373,2.30452 23.708804,4.4612 23.610034,1.21682 z"
         id="path4010-1-9-1-1-1-7-7-0-9" />
      <path
         style="fill:#dcb5c3;fill-rule:evenodd;stroke:#000000;stroke-width:1.89894724;stroke-linecap:round;stroke-linejoin:round"
         inkscape:connector-curvature="0"
         d="m -11.392297,34.252496 c -0.10227,0 -0.20481,0.009 -0.30688,0.009 -0.058,0 -0.11606,0 -0.17405,-0.009 l -0.27024,0 0,0.0221 c -6.84741,0.37212 -13.19088,4.45275 -17.44208,9.60441 -9.111704,10.96856 -12.586954,25.41566 -12.893554,39.27838 0.23939,3.555602 -0.46007,7.823882 1.04892,10.906832 5.483044,3.33996 15.151864,3.89893 21.742674,4.67952 1.74915,0.0774 4.52735,0.0992 7.54373,0.11592 l 0,0.009 c 0.3165,0 0.61765,0 0.92979,-0.009 0.0308,-1.9e-4 0.0609,1.8e-4 0.0917,0 3.0163798,-0.0166 5.7945798,-0.0387 7.5437298,-0.11592 6.59102,-0.78064 16.2599402,-1.33956 21.7426702,-4.67952 1.50902,-3.08315 0.80951,-7.35144 1.04892,-10.906832 -0.30674,-13.86272 -3.78175,-28.30982 -12.8935402,-39.27838 -4.251,-5.15155 -10.59407,-9.23218 -17.4420898,-9.60431 l 0,-0.0313 c -0.0896,-8e-5 -0.18077,0 -0.27023,0 z"
         id="path3932-5-3-8-0-8-6-6-0-8" />
      <g
         id="g5646"
         transform="matrix(0.94815668,0,0,0.94815668,31.960027,-223.95768)">
        <rect
           x="-81.022064"
           y="228.00955"
           width="70"
           height="60"
           ry="29"
           rx="33.5"
           id="rect4240-5-1-0-4-9-3-9"
           style="fill:#ffffff;fill-rule:evenodd;stroke:#000000;stroke-width:2;stroke-linecap:round;stroke-linejoin:bevel" />
        <g
           transform="matrix(1.1165,0,0,0.4367,-679.22207,-24.25744)"
           id="g5299-9-1-0"
           style="stroke:#000000;stroke-width:1.37479997">
          <g
             transform="matrix(1.25,0,0,-1.25,571.54,679.49)"
             id="g460-96-3-5">
            <path
               d="m 0,0 c 0,-2.464 -1.999,-4.461 -4.463,-4.461 -2.463,0 -4.461,1.997 -4.461,4.461 0,2.464 1.998,4.462 4.461,4.462 C -1.999,4.462 0,2.464 0,0"
               id="path462-9-3-5"
               inkscape:connector-curvature="0"
               style="fill:#ffffff;stroke:#000000;stroke-width:1.37479997" />
          </g>
          <g
             transform="matrix(1.25,0,0,-1.25,571.54,679.49)"
             id="g464-2-8-0">
            <path
               d="m 0,0 c 0,-2.464 -1.999,-4.461 -4.463,-4.461 -2.463,0 -4.461,1.997 -4.461,4.461 0,2.464 1.998,4.462 4.461,4.462 C -1.999,4.462 0,2.464 0,0 Z"
               id="path466-0-7-2"
               inkscape:connector-curvature="0"
               style="fill:none;stroke:#000000;stroke-width:1.37479997" />
          </g>
        </g>
        <g
           transform="matrix(0.56017,0,0,-0.56017,-57.74207,259.61256)"
           id="g456-8-1-4-6-0-6">
          <path
             d="m 0,0 c 0,-2.958 -2.396,-5.355 -5.355,-5.355 -2.958,0 -5.356,2.397 -5.356,5.355 0,2.957 2.398,5.356 5.356,5.356 C -2.396,5.356 0,2.957 0,0"
             id="path458-3-5-7-7-3-9"
             inkscape:connector-curvature="0" />
        </g>
        <g
           transform="matrix(0.56017,0,0,-0.56017,-29.74207,259.11256)"
           id="g456-1-5-1-3-1-0">
          <path
             d="m 0,0 c 0,-2.958 -2.396,-5.355 -5.355,-5.355 -2.958,0 -5.356,2.397 -5.356,5.355 0,2.957 2.398,5.356 5.356,5.356 C -2.396,5.356 0,2.957 0,0"
             id="path458-9-3-2-2-4-1"
             inkscape:connector-curvature="0" />
        </g>
        <path
           transform="translate(281.97911,326.40604)"
           inkscape:connector-curvature="0"
           id="path5339"
           d="m -334.73117,-39.89368 c -13.25495,-1.808418 -24.26008,-11.075146 -26.58132,-22.382468 -2.15241,-10.484851 1.26223,-20.441807 9.32022,-27.177404 4.31019,-3.602847 9.90588,-6.143607 16.05299,-7.28896 3.37061,-0.628026 12.50566,-0.628026 15.87628,0 14.24273,2.653765 24.33434,12.404921 25.7892,24.919173 0.54389,4.678408 -0.0606,9.598686 -1.66934,13.58839 -3.90806,9.691803 -13.8192,16.811517 -25.54207,18.348252 -3.47405,0.455407 -9.8816,0.45203 -13.24596,-0.007 l 0,-1.3e-5 z m 10.50887,-11.948963 c 1.64726,-0.742841 2.1558,-1.233002 2.1558,-2.077884 0,-1.979879 -4.68232,-3.389451 -9.28531,-2.795264 -5.71154,0.737285 -7.05528,3.579294 -2.41441,5.106476 2.17551,0.7159 7.74071,0.579842 9.54392,-0.233328 z m -16.5226,-12.604661 c 2.07107,-1.855877 0.88761,-5.366435 -1.8091,-5.366435 -2.54647,0 -4.01673,2.332558 -2.8691,4.551825 0.83068,1.606368 3.3124,2.038506 4.6782,0.81461 z m 28.32299,-0.792288 c 0.58046,-0.649652 0.70948,-1.027524 0.70948,-2.078005 0,-1.123471 -0.10733,-1.391283 -0.85863,-2.142589 -0.7006,-0.700594 -1.05151,-0.85863 -1.90658,-0.85863 -2.59039,0 -4.07126,2.313409 -2.91373,4.551826 0.55665,1.076431 1.53211,1.536154 3.01229,1.419648 1.01373,-0.07979 1.38073,-0.247101 1.95717,-0.89225 z"
           style="fill:#ab926c;fill-opacity:1" />
        <path
           transform="translate(281.97911,326.40604)"
           inkscape:connector-curvature="0"
           id="path5359"
           d="m -331.05798,-52.134674 c -2.31147,-0.338994 -3.80621,-1.39768 -3.24818,-2.300595 0.31171,-0.504363 2.21762,-1.195919 3.77178,-1.368592 2.59346,-0.288141 5.91337,0.569668 6.32155,1.633382 0.4954,1.290986 -3.60617,2.510827 -6.84515,2.035805 z"
           style="fill:#b66b6f;fill-opacity:1" />
      </g>
      <path
         style="fill:#69383d;fill-rule:evenodd;stroke:#000002;stroke-width:0.92088193;stroke-linecap:round;stroke-linejoin:bevel"
         inkscape:connector-curvature="0"
         d="m -34.550667,-13.887375 c -1.11126,0.095 -2.542494,2.08466 -3.597164,2.15832 -1.12495,0.0783 -1.90224,-2.30575 -2.99282,-1.98557 -1.09058,0.31992 -1.30778,3.38594 -2.27345,3.9712502 -0.96566,0.5854 -2.7032,-0.7108302 -3.53966,0.058 -0.83648,0.76791 -0.0408,2.68231 -0.6331,3.65468 -0.59234,0.97236 -3.02708,1.13811 -3.39572,2.2159404 -0.36861,1.07761 1.96428,2.21984 1.87055,3.33820005 -0.0937,1.11805 -2.35565,2.10080995 -2.15832,3.22307995 0.19733,1.12196 2.52532,1.45469 2.96412,2.5036 0.4388,1.04891 -1.40675,2.91247 -0.71943,3.79861 0.6873,0.88617 3.67834,-0.33778 4.5756,0.37415 0.0906,0.0719 0.17843,0.14366 0.23022,0.25897 -1.38997,3.0483704 -2.19556,6.3500504 -2.30215,9.8130604 0.16985,-0.0221 0.34722,-0.0378 0.518,-0.0571 3.97331,-10.2504304 16.861814,-17.6982704 32.230764,-17.6982704 l 2.99282,0 c 15.2228498,0 28.01248,7.31028 32.11553,17.4101904 l 1.32372,0 c -0.0641,-1.4406 -0.24845,-2.85249 -0.54677,-4.23022 0.18349,0.009 0.34668,-0.0359 0.48922,-0.11508 0.98119,-0.54371 0.26194,-3.39171 1.09356,-4.144 0.8316,-0.7522704 3.16165,0.45704 3.7411,-0.51799 0.5794,-0.9750404 -1.33483,-2.9258404 -0.97843,-4.0001604 0.35634,-1.07412 3.45858,-1.09542 3.56846,-2.21584 0.10979,-1.12041 -2.66884,-2.39783 -2.82018,-3.51083995 -0.15142,-1.11301 1.69955,-2.72440005 1.2662,-3.76981005 -0.43335,-1.0455204 -3.06473,-0.28069 -3.7698,-1.1798804 -0.70515,-0.89924 0.60267,-3.61034 -0.259,-4.34535 -0.86167,-0.73513 -2.50504,1.28308 -3.53965,0.83451 -1.03461,-0.44857 -1.31189,-3.6132202 -2.44609,-3.7986102 -1.1342,-0.18548 -2.70237,2.0797102 -3.82742,2.1583202 -1.12495,0.0783 -1.90224,-2.3057602 -2.99282,-1.9856802 -1.09058,0.32009 -1.30777,3.3859402 -2.2734502,3.9712502 -0.96566,0.5854 -2.7032,-0.7099 -3.53965,0.0571 -0.60995,0.56001 -0.33042,1.73938 -0.37411,2.70505 -4.71274999,-2.22715 -10.11565,-3.51084 -15.8854398,-3.51084 l -2.99282,0 c -4.69556,0 -9.14307,0.84703 -13.18059,2.35977 -0.6236,-0.0452 -1.19068,-0.13596 -1.46765,-0.48918 -0.70514,-0.89934 0.5739,-3.6391402 -0.28777,-4.3741502 -0.86167,-0.73514 -2.47623,1.3119902 -3.51084,0.86323 -1.03462,-0.44847 -1.31189,-3.61311 -2.44609,-3.79861 -0.0709,-0.011 -0.15614,-0.009 -0.23022,0 z"
         id="rect4240-2-3-3-6-6" />
      <g
         style="fill:none;stroke:#ca3f8a;stroke-width:39.40200043;stroke-linecap:round;stroke-linejoin:bevel"
         transform="matrix(0.38048907,0,0,0.49842607,174.84898,-1197.6506)"
         id="g8516-4">
        <g
           transform="matrix(0.22884,0,0,0.32281,-434.24,1726.1)"
           id="g8472-0">
          <g
             id="g8444-11">
            <path
               inkscape:connector-curvature="0"
               d="m -560.32,2545.7 c 48.727,-11.127 48.922,-90.633 81.178,-98.636"
               id="path8424-98" />
            <path
               inkscape:connector-curvature="0"
               d="m -399.41,2545.7 c -48.727,-11.127 -48.922,-90.633 -81.178,-98.636"
               id="path8424-7-9" />
          </g>
          <g
             transform="translate(159.86,-1.7e-5)"
             id="g8444-1-0">
            <path
               inkscape:connector-curvature="0"
               d="m -560.32,2545.7 c 48.727,-11.127 48.922,-90.633 81.178,-98.636"
               id="path8424-9-6" />
            <path
               inkscape:connector-curvature="0"
               d="m -399.41,2545.7 c -48.727,-11.127 -48.922,-90.633 -81.178,-98.636"
               id="path8424-7-6-9" />
          </g>
        </g>
        <g
           transform="matrix(0.22884,0,0,0.32281,-361.48,1726.5)"
           id="g8472-7-5">
          <g
             id="g8444-7-1">
            <path
               inkscape:connector-curvature="0"
               d="m -560.32,2545.7 c 48.727,-11.127 48.922,-90.633 81.178,-98.636"
               id="path8424-97-1" />
            <path
               inkscape:connector-curvature="0"
               d="m -399.41,2545.7 c -48.727,-11.127 -48.922,-90.633 -81.178,-98.636"
               id="path8424-7-2-5" />
          </g>
          <g
             transform="translate(159.86,-1.7e-5)"
             id="g8444-1-7-6">
            <path
               inkscape:connector-curvature="0"
               d="m -560.32,2545.7 c 48.727,-11.127 48.922,-90.633 81.178,-98.636"
               id="path8424-9-3-0" />
            <path
               inkscape:connector-curvature="0"
               d="m -399.41,2545.7 c -48.727,-11.127 -48.922,-90.633 -81.178,-98.636"
               id="path8424-7-6-5-3" />
          </g>
        </g>
      </g>
    </g>
  </g>
</svg>
