<?xml version="1.0" encoding="UTF-8" standalone="no"?>
<!-- Uploaded to: SVG Repo, www.svgrepo.com, Generator: SVG Repo Mixer Tools -->

<svg
   xmlns:dc="http://purl.org/dc/elements/1.1/"
   xmlns:cc="http://creativecommons.org/ns#"
   xmlns:rdf="http://www.w3.org/1999/02/22-rdf-syntax-ns#"
   xmlns:svg="http://www.w3.org/2000/svg"
   xmlns="http://www.w3.org/2000/svg"
   xmlns:sodipodi="http://sodipodi.sourceforge.net/DTD/sodipodi-0.dtd"
   xmlns:inkscape="http://www.inkscape.org/namespaces/inkscape"
   width="708.36237"
   height="795.44348"
   viewBox="-1.5 0 15.938153 17.897478"
   id="meteor-icon-kit__solid-redo-s"
   version="1.1"
   sodipodi:docname="voir.svg"
   style="fill:none"
   inkscape:version="0.92.5 (2060ec1f9f, 2020-04-08)">
  <metadata
     id="metadata9">
    <rdf:RDF>
      <cc:Work
         rdf:about="">
        <dc:format>image/svg+xml</dc:format>
        <dc:type
           rdf:resource="http://purl.org/dc/dcmitype/StillImage" />
        <dc:title></dc:title>
      </cc:Work>
    </rdf:RDF>
  </metadata>
  <defs
     id="defs7" />
  <sodipodi:namedview
     pagecolor="#ffffff"
     bordercolor="#666666"
     borderopacity="1"
     objecttolerance="10"
     gridtolerance="10"
     guidetolerance="10"
     inkscape:pageopacity="0"
     inkscape:pageshadow="2"
     inkscape:window-width="1638"
     inkscape:window-height="1001"
     id="namedview5"
     showgrid="false"
     fit-margin-top="0"
     fit-margin-left="0"
     fit-margin-right="0"
     fit-margin-bottom="0"
     inkscape:zoom="0.417193"
     inkscape:cx="-281.96462"
     inkscape:cy="643.3526"
     inkscape:window-x="42"
     inkscape:window-y="25"
     inkscape:window-maximized="1"
     inkscape:current-layer="meteor-icon-kit__solid-redo-s" />
  <style
     id="style850"
     type="text/css">
	.linesandangles_een{fill:#111918;}
</style>
  <path
     id="path835"
     d="m 6.9825324,5.1216137 c -3.9634456,0 -6.16535973,3.5230627 -6.16535973,4.4038284 0,0.8807659 2.20191413,4.4038289 6.16535973,4.4038289 3.9634456,0 6.1653586,-3.523063 6.1653586,-4.4038289 0,-0.8807657 -2.201913,-4.4038284 -6.1653586,-4.4038284 z m 0,7.9268913 c -1.9456114,0 -3.5230627,-1.577451 -3.5230627,-3.5230629 0,-1.9456113 1.5774513,-3.5230627 3.5230627,-3.5230627 1.9456114,0 3.5230626,1.5774514 3.5230626,3.5230627 0,1.9456119 -1.5774512,3.5230629 -3.5230626,3.5230629 z m 0,-6.6057427 c -1.6998777,0 -3.0826799,1.3828021 -3.0826799,3.0826798 0,1.6998789 1.3828022,3.0826809 3.0826799,3.0826809 1.6998778,0 3.0826796,-1.382802 3.0826796,-3.0826809 0,-1.6998777 -1.3828018,-3.0826798 -3.0826796,-3.0826798 z m 0,4.4038287 c -0.7297144,0 -1.3211486,-0.591435 -1.3211486,-1.3211489 0,-0.7297143 0.5914342,-1.3211484 1.3211486,-1.3211484 0.7297142,0 1.3211485,0.5914341 1.3211485,1.3211484 0,0.7297139 -0.5914343,1.3211489 -1.3211485,1.3211489 z"
     class="sharpcorners_een"
     inkscape:connector-curvature="0"
     style="fill:#000080;stroke-width:0.44038284" />
  <path
     style="fill:#999999;stroke-width:0.03172721"
     d="m 6.462862,17.889021 c -0.06111,-0.0066 -0.2611127,-0.0271 -0.4444437,-0.04555 C 4.5609789,17.696725 3.1113124,17.123065 1.8550379,16.195943 1.4041602,15.863205 0.61985862,15.094115 0.27926552,14.650744 -0.65999228,13.428052 -1.2259869,12.080028 -1.4519958,10.527423 -1.5099696,10.129144 -1.5172806,8.8323684 -1.4638008,8.4334614 -1.2551671,6.8773194 -0.70022579,5.5135867 0.22167172,4.29152 0.52583332,3.888324 1.2195724,3.1755893 1.6189539,2.8559786 3.9485793,0.99166313 7.0339197,0.46956432 9.817186,1.4686805 c 0.462598,0.166059 1.344364,0.6058191 1.753213,0.8743728 0.196917,0.1293445 0.50092,0.3496694 0.675562,0.4896103 l 0.317534,0.2544385 0.0025,-1.2133599 0.0025,-1.21335931 0.09732,-0.17505172 c 0.108395,-0.19494289 0.331743,-0.38644824 0.516658,-0.44298739 0.456368,-0.13953805 0.961978,0.07619463 1.15817,0.49416333 0.06772,0.1442925 0.06826,0.16197089 0.08284,2.74681679 l 0.01467,2.60159 -0.074,0.1431918 c -0.101014,0.1952217 -0.241968,0.3398405 -0.430466,0.4415155 l -0.158157,0.08531 -2.535356,0.02296 C 8.4261515,6.6033929 8.5106379,6.6084725 8.229948,6.3966436 7.9423259,6.1795847 7.8085505,5.7425888 7.916803,5.3737213 7.9735697,5.180274 8.1595958,4.9559613 8.3564342,4.8435926 l 0.1739427,-0.099299 1.5036601,-0.02434 1.50366,-0.024341 -0.20527,-0.1781418 C 10.054933,3.4088112 8.563111,2.8475282 6.917484,2.8563908 5.0910712,2.8662272 3.4393897,3.5810533 2.1691416,4.9114115 c -2.4265838,2.541413 -2.40462287,6.5741315 0.049579,9.0934625 0.4127152,0.423678 0.7091086,0.669612 1.1578582,0.960736 1.1915075,0.772983 2.7139542,1.157769 4.0909763,1.033958 1.9606959,-0.176292 3.6947539,-1.152512 4.8133799,-2.709778 0.425428,-0.592249 0.552088,-0.688038 0.942599,-0.712853 0.212765,-0.01347 0.269201,-0.0052 0.416513,0.06153 0.245495,0.111171 0.361976,0.221524 0.477008,0.4519 0.09377,0.187762 0.100449,0.221909 0.08822,0.449665 -0.01527,0.284486 -0.0448,0.351915 -0.330821,0.755145 -0.302766,0.426837 -0.522905,0.691942 -0.874103,1.052639 -1.286174,1.320963 -2.938601,2.167509 -4.7929053,2.455428 -0.4049527,0.06287 -1.4709983,0.115294 -1.7445405,0.08579 z"
     id="path874"
     inkscape:connector-curvature="0" />
  <style
     id="style833"
     type="text/css">
	.sharpcorners_een{fill:#111918;}
	.st0{fill:#111918;}
</style>
</svg>
